tests/ifc_add.vcd
$date
	Mon Feb 27 18:05:09 2023
$end
$version
	Icarus Verilog
$end
$timescale
	1ps
$end
$scope module ifc_test $end
$var wire 1 ! RST_N $end
$var wire 8 " cfg_address [7:0] $end
$var wire 32 # cfg_data_in [31:0] $end
$var wire 1 $ cfg_en $end
$var wire 1 % cfg_op $end
$var wire 1 & cfg_rdy $end
$var wire 1 ' din_en $end
$var wire 8 ( din_value [7:0] $end
$var wire 1 ) dout_en $end
$var wire 1 * len_en $end
$var wire 1 + len_rdy $end
$var wire 8 , len_value [7:0] $end
$var wire 8 - dout_value [7:0] $end
$var wire 1 . dout_rdy $end
$var wire 1 / din_rdy $end
$var wire 32 0 cfg_data_out [31:0] $end
$var reg 1 1 CLK $end
$scope module dut $end
$var wire 1 1 CLK $end
$var wire 1 2 \MUX_programmed_length$write_1__SEL_1 $end
$var wire 1 ! RST_N $end
$var wire 1 3 \busy$EN $end
$var wire 8 4 cfg_address [7:0] $end
$var wire 32 5 cfg_data_in [31:0] $end
$var wire 1 $ cfg_en $end
$var wire 1 % cfg_op $end
$var wire 1 & cfg_rdy $end
$var wire 8 6 \current_count$D_IN [7:0] $end
$var wire 1 7 \current_count$EN $end
$var wire 1 ' din_en $end
$var wire 1 / din_rdy $end
$var wire 8 8 din_value [7:0] $end
$var wire 1 ) dout_en $end
$var wire 1 9 \dout_ff$CLR $end
$var wire 1 : \dout_ff$DEQ $end
$var wire 1 ; \dout_ff$ENQ $end
$var wire 1 . dout_rdy $end
$var wire 8 < dout_value [7:0] $end
$var wire 1 * len_en $end
$var wire 1 + len_rdy $end
$var wire 8 = len_value [7:0] $end
$var wire 1 > \pause$EN $end
$var wire 1 ? \programmed_length$EN $end
$var wire 1 @ \sum$EN $end
$var wire 1 A \sw_override$EN $end
$var wire 1 B \w_sw_override$whas $end
$var wire 17 C x__h969 [16:0] $end
$var wire 1 D \sw_override$D_IN $end
$var wire 8 E \sum$D_IN [7:0] $end
$var wire 8 F \programmed_length$D_IN [7:0] $end
$var wire 1 G \pause$D_IN $end
$var wire 8 H next_count__h523 [7:0] $end
$var wire 1 I \dout_ff$FULL_N $end
$var wire 1 J \dout_ff$EMPTY_N $end
$var wire 8 K \dout_ff$D_OUT [7:0] $end
$var wire 8 L \dout_ff$D_IN [7:0] $end
$var wire 1 M current_count_PLUS_1_EQ_programmed_length___d8 $end
$var wire 32 N cfg_data_out [31:0] $end
$var wire 1 O \busy$D_IN $end
$var reg 32 P CASE_cfg_address_0_0_CONCAT_x69_4_0_CONCAT_sw__ETC__q1 [31:0] $end
$var reg 1 Q busy $end
$var reg 8 R current_count [7:0] $end
$var reg 1 S pause $end
$var reg 8 T programmed_length [7:0] $end
$var reg 8 U sum [7:0] $end
$var reg 1 V sw_override $end
$scope module dout_ff $end
$var wire 1 1 CLK $end
$var wire 1 9 CLR $end
$var wire 1 : DEQ $end
$var wire 8 W D_IN [7:0] $end
$var wire 1 J EMPTY_N $end
$var wire 1 ; ENQ $end
$var wire 1 I FULL_N $end
$var wire 1 ! RST $end
$var wire 1 X d0d1 $end
$var wire 1 Y d0di $end
$var wire 1 Z d0h $end
$var wire 1 [ d1di $end
$var wire 8 \ D_OUT [7:0] $end
$var reg 8 ] data0_reg [7:0] $end
$var reg 8 ^ data1_reg [7:0] $end
$var reg 1 _ empty_reg $end
$var reg 1 ` full_reg $end
$scope begin error_checks $end
$var reg 1 a deqerror $end
$var reg 1 b enqerror $end
$upscope $end
$upscope $end
$upscope $end
$upscope $end
$enddefinitions $end
#0
$dumpvars
xb
xa
1`
0_
b10101010 ^
b10101010 ]
b10101010 \
0[
1Z
0Y
0X
bx W
0V
b0 U
b0 T
0S
b0 R
0Q
b0 P
1O
b0 N
0M
bx L
b10101010 K
0J
1I
b1 H
zG
bz F
bx E
zD
b0 C
xB
xA
x@
x?
x>
bz =
b10101010 <
0;
z:
09
bz 8
x7
b1 6
bz 5
bz 4
z3
x2
01
b0 0
1/
0.
b10101010 -
bz ,
1+
z*
z)
bz (
z'
1&
z%
z$
bz #
bz "
0!
$end
#5000
0b
0a
11
#10000
0>
0A
0B
b0 "
b0 4
1%
1$
0:
0)
1!
01
#15000
11
#20000
0$
01
#25000
0?
02
07
0@
1$
0*
03
0'
11
#30000
01
#35000
b1 P
1V
b1 F
0G
1D
1>
1A
1B
b1 #
b1 5
b100 "
b100 4
11
#40000
01
#45000
0>
0A
0B
0$
11
#50000
1>
1A
1B
17
1@
b101100 E
b101100 L
b101100 W
b101100 (
b101100 8
13
1'
1$
01
#55000
1?
b111 F
07
0@
1G
b0 P
0>
0A
0B
03
0'
b111 #
b111 5
b1000 "
b1000 4
b1011000 E
b1011000 L
b1011000 W
b101100 U
b10 6
b10 H
b1 R
b10000000000000001 C
1Q
11
#60000
01
#65000
0?
0$
b111 P
b10000011100000001 C
b111 T
11
#70000
17
1@
b1011010 E
b1011010 L
b1011010 W
b101110 (
b101110 8
13
1'
01
#75000
07
0@
03
0'
b10001000 E
b10001000 L
b10001000 W
b1011010 U
b11 6
b11 H
b10000011100000010 C
b10 R
11
#80000
17
1@
b1100010 E
b1100010 L
b1100010 W
b1000 (
b1000 8
13
1'
01
#85000
07
0@
03
0'
b1101010 E
b1101010 L
b1101010 W
b1100010 U
b100 6
b100 H
b10000011100000011 C
b11 R
11
#90000
17
1@
b1111000 E
b1111000 L
b1111000 W
b10110 (
b10110 8
13
1'
01
#95000
07
0@
03
0'
b10001110 E
b10001110 L
b10001110 W
b1111000 U
b101 6
b101 H
b10000011100000100 C
b100 R
11
#100000
17
1@
b10010110 E
b10010110 L
b10010110 W
b11110 (
b11110 8
13
1'
01
#105000
07
0@
03
0'
b10110100 E
b10110100 L
b10110100 W
b10010110 U
b110 6
b110 H
b10000011100000101 C
b101 R
11
#110000
17
1@
b10101100 E
b10101100 L
b10101100 W
b10110 (
b10110 8
13
1'
01
#115000
03
0'
1Z
0Y
0@
07
0;
b11000010 E
b11000010 L
b11000010 W
b10101100 U
0O
1M
b111 6
b111 H
b10000011100000110 C
b110 R
11
#120000
0Z
1Y
1;
b10111001 E
b10111001 L
b10111001 W
b1101 (
b1101 8
13
1'
01
#125000
1:
1)
03
0'
0@
07
0;
b1101 E
b1101 L
b1101 W
b0 U
1O
0M
b1 6
b1 H
b0 R
1Z
0Y
0[
1.
1J
1_
b10111001 -
b10111001 <
b10111001 K
b10111001 \
b10111001 ]
b11100000000 C
0Q
11
#130000
01
#135000
0.
0J
0_
11
#140000
1?
1$
0:
0)
01
#145000
12
0V
1?
b110 F
0G
0D
b0 P
1>
1A
1B
b110 ,
b110 =
1*
b0 #
b0 5
b100 "
b100 4
11
#150000
01
#155000
b0 F
0?
02
0>
0A
0B
0*
0$
b11000000000 C
b110 T
11
#160000
17
1@
b100110 E
b100110 L
b100110 W
b100110 (
b100110 8
13
1'
01
#165000
07
0@
03
0'
b1001100 E
b1001100 L
b1001100 W
b100110 U
b10 6
b10 H
b1 R
b10000011000000001 C
1Q
11
#170000
17
1@
b110101 E
b110101 L
b110101 W
b1111 (
b1111 8
13
1'
01
#175000
07
0@
03
0'
b1000100 E
b1000100 L
b1000100 W
b110101 U
b11 6
b11 H
b10000011000000010 C
b10 R
11
#180000
17
1@
b110101 E
b110101 L
b110101 W
b0 (
b0 8
13
1'
01
#185000
07
0@
03
0'
b100 6
b100 H
b10000011000000011 C
b11 R
11
#190000
17
1@
13
1'
01
#195000
07
0@
03
0'
b101 6
b101 H
b10000011000000100 C
b100 R
11
#200000
17
1@
b1100010 E
b1100010 L
b1100010 W
b101101 (
b101101 8
13
1'
01
#205000
03
0'
1Z
0Y
0@
07
0;
b10001111 E
b10001111 L
b10001111 W
b1100010 U
0O
1M
b110 6
b110 H
b10000011000000101 C
b101 R
11
#210000
0Z
1Y
1;
b1100101 E
b1100101 L
b1100101 W
b11 (
b11 8
13
1'
01
#215000
1:
1)
03
0'
0@
07
0;
b11 E
b11 L
b11 W
b0 U
1O
0M
b1 6
b1 H
b0 R
1Z
0Y
0[
b1100101 -
b1100101 <
b1100101 K
b1100101 \
b1100101 ]
1.
1J
1_
b11000000000 C
0Q
11
#220000
01
#225000
0.
0J
0_
11
#230000
1>
1A
1B
1$
0:
0)
01
#235000
b1 F
1D
b1 #
b1 5
11
#240000
01
#245000
0>
0A
0B
0$
11
#250000
b1 P
1V
1>
1A
1B
17
1@
b110000 E
b110000 L
b110000 W
b110000 (
b110000 8
13
1'
1$
01
#255000
1?
b111 F
07
0@
1G
b110 P
0>
0A
0B
03
0'
b111 #
b111 5
b1000 "
b1000 4
b1100000 E
b1100000 L
b1100000 W
b110000 U
b10 6
b10 H
b1 R
b10000011000000001 C
1Q
11
#260000
01
#265000
0?
0$
b111 P
b10000011100000001 C
b111 T
11
#270000
17
1@
b1011111 E
b1011111 L
b1011111 W
b101111 (
b101111 8
13
1'
01
#275000
07
0@
03
0'
b10001110 E
b10001110 L
b10001110 W
b1011111 U
b11 6
b11 H
b10000011100000010 C
b10 R
11
#280000
17
1@
b1100110 E
b1100110 L
b1100110 W
b111 (
b111 8
13
1'
01
#285000
07
0@
03
0'
b1101101 E
b1101101 L
b1101101 W
b1100110 U
b100 6
b100 H
b10000011100000011 C
b11 R
11
#290000
17
1@
b10010110 E
b10010110 L
b10010110 W
b110000 (
b110000 8
13
1'
01
#295000
07
0@
03
0'
b11000110 E
b11000110 L
b11000110 W
b10010110 U
b101 6
b101 H
b10000011100000100 C
b100 R
11
#300000
17
1@
b10111111 E
b10111111 L
b10111111 W
b101001 (
b101001 8
13
1'
01
#305000
07
0@
03
0'
b11101000 E
b11101000 L
b11101000 W
b10111111 U
b110 6
b110 H
b10000011100000101 C
b101 R
11
#310000
17
1@
b11100110 E
b11100110 L
b11100110 W
b100111 (
b100111 8
13
1'
01
#315000
03
0'
1Z
0Y
0@
07
0;
b1101 E
b1101 L
b1101 W
b11100110 U
0O
1M
b111 6
b111 H
b10000011100000110 C
b110 R
11
#320000
0Z
1Y
1;
b11101011 E
b11101011 L
b11101011 W
b101 (
b101 8
13
1'
01
#325000
1:
1)
03
0'
0@
07
0;
b101 E
b101 L
b101 W
b0 U
1O
0M
b1 6
b1 H
b0 R
1Z
0Y
0[
1.
1J
1_
b11101011 -
b11101011 <
b11101011 K
b11101011 \
b11101011 ]
b11100000000 C
0Q
11
#330000
01
#335000
0.
0J
0_
11
#340000
1?
1$
0:
0)
01
#345000
0?
b1 F
0G
b1 P
1>
1A
1B
b1 #
b1 5
b100 "
b100 4
11
#350000
01
#355000
0>
0A
0B
0$
11
#360000
1>
1A
1B
17
1@
b101100 E
b101100 L
b101100 W
b101100 (
b101100 8
13
1'
1$
01
#365000
1?
b100 F
07
0@
0D
b111 P
0>
0A
0B
03
0'
b100 #
b100 5
b1000 "
b1000 4
b1011000 E
b1011000 L
b1011000 W
b101100 U
b10 6
b10 H
b1 R
b10000011100000001 C
1Q
11
#370000
01
#375000
0?
0$
b100 P
b10000010000000001 C
b100 T
11
#380000
17
1@
b1010010 E
b1010010 L
b1010010 W
b100110 (
b100110 8
13
1'
01
#385000
07
0@
03
0'
b1111000 E
b1111000 L
b1111000 W
b1010010 U
b11 6
b11 H
b10000010000000010 C
b10 R
11
#390000
17
1@
b1011011 E
b1011011 L
b1011011 W
b1001 (
b1001 8
13
1'
01
#395000
03
0'
1Z
0Y
0@
07
0;
b1100100 E
b1100100 L
b1100100 W
b1011011 U
0O
1M
b100 6
b100 H
b10000010000000011 C
b11 R
11
#400000
0Z
1Y
1;
b1110110 E
b1110110 L
b1110110 W
b11011 (
b11011 8
13
1'
01
#405000
1:
1)
03
0'
0@
07
0;
b11011 E
b11011 L
b11011 W
b0 U
1O
0M
b1 6
b1 H
b0 R
1Z
0Y
0[
1.
1J
1_
b1110110 -
b1110110 <
b1110110 K
b1110110 \
b1110110 ]
b10000000000 C
0Q
11
#410000
01
#415000
0.
0J
0_
11
#420000
1?
1$
0:
0)
01
#425000
12
0V
1?
b101 F
b0 P
1>
1A
1B
b101 ,
b101 =
1*
b0 #
b0 5
b100 "
b100 4
11
#430000
01
#435000
b0 F
0?
02
0>
0A
0B
0*
0$
b10100000000 C
b101 T
11
#440000
17
1@
b101010 E
b101010 L
b101010 W
b101010 (
b101010 8
13
1'
01
#445000
07
0@
03
0'
b1010100 E
b1010100 L
b1010100 W
b101010 U
b10 6
b10 H
b1 R
b10000010100000001 C
1Q
11
#450000
17
1@
b110010 E
b110010 L
b110010 W
b1000 (
b1000 8
13
1'
01
#455000
07
0@
03
0'
b111010 E
b111010 L
b111010 W
b110010 U
b11 6
b11 H
b10000010100000010 C
b10 R
11
#460000
17
1@
b1000100 E
b1000100 L
b1000100 W
b10010 (
b10010 8
13
1'
01
#465000
07
0@
03
0'
b1010110 E
b1010110 L
b1010110 W
b1000100 U
b100 6
b100 H
b10000010100000011 C
b11 R
11
#470000
17
1@
b1110000 E
b1110000 L
b1110000 W
b101100 (
b101100 8
13
1'
01
#475000
03
0'
1Z
0Y
0@
07
0;
b10011100 E
b10011100 L
b10011100 W
b1110000 U
0O
1M
b101 6
b101 H
b10000010100000100 C
b100 R
11
#480000
0Z
1Y
1;
b10001101 E
b10001101 L
b10001101 W
b11101 (
b11101 8
13
1'
01
#485000
1:
1)
03
0'
0@
07
0;
b11101 E
b11101 L
b11101 W
b0 U
1O
0M
b1 6
b1 H
b0 R
1Z
0Y
0[
1.
1J
1_
b10001101 -
b10001101 <
b10001101 K
b10001101 \
b10001101 ]
b10100000000 C
0Q
11
#490000
01
#495000
0.
0J
0_
11
#500000
1>
1A
1B
1$
0:
0)
01
#505000
b101 F
1?
12
1*
11
#510000
01
#515000
b0 F
0?
02
0>
0A
0B
0*
0$
11
#520000
17
1@
b11010 E
b11010 L
b11010 W
b11010 (
b11010 8
13
1'
01
#525000
07
0@
03
0'
b110100 E
b110100 L
b110100 W
b11010 U
b10 6
b10 H
b1 R
b10000010100000001 C
1Q
11
#530000
17
1@
b1001100 E
b1001100 L
b1001100 W
b110010 (
b110010 8
13
1'
01
#535000
07
0@
03
0'
b1111110 E
b1111110 L
b1111110 W
b1001100 U
b11 6
b11 H
b10000010100000010 C
b10 R
11
#540000
17
1@
b1001100 E
b1001100 L
b1001100 W
b0 (
b0 8
13
1'
01
#545000
07
0@
03
0'
b100 6
b100 H
b10000010100000011 C
b11 R
11
#550000
17
1@
b1100010 E
b1100010 L
b1100010 W
b10110 (
b10110 8
13
1'
01
#555000
03
0'
1Z
0Y
0@
07
0;
b1111000 E
b1111000 L
b1111000 W
b1100010 U
0O
1M
b101 6
b101 H
b10000010100000100 C
b100 R
11
#560000
0Z
1Y
1;
b10001001 E
b10001001 L
b10001001 W
b100111 (
b100111 8
13
1'
01
#565000
1:
1)
03
0'
0@
07
0;
b100111 E
b100111 L
b100111 W
b0 U
1O
0M
b1 6
b1 H
b0 R
1Z
0Y
0[
1.
1J
1_
b10001001 -
b10001001 <
b10001001 K
b10001001 \
b10001001 ]
b10100000000 C
0Q
11
#570000
01
#575000
0.
0J
0_
11
#580000
1>
1A
1B
1$
0:
0)
01
#585000
b1 F
1D
b1 #
b1 5
11
#590000
01
#595000
0>
0A
0B
0$
11
#600000
b1 P
1V
1>
1A
1B
17
1@
b1 E
b1 L
b1 W
b1 (
b1 8
13
1'
1$
01
#605000
1?
b111 F
07
0@
1G
b101 P
0>
0A
0B
03
0'
b111 #
b111 5
b1000 "
b1000 4
b10 E
b10 L
b10 W
b1 U
b10 6
b10 H
b1 R
b10000010100000001 C
1Q
11
#610000
01
#615000
0?
0$
b111 P
b10000011100000001 C
b111 T
11
#620000
17
1@
b10000 E
b10000 L
b10000 W
b1111 (
b1111 8
13
1'
01
#625000
07
0@
03
0'
b11111 E
b11111 L
b11111 W
b10000 U
b11 6
b11 H
b10000011100000010 C
b10 R
11
#630000
17
1@
b111100 E
b111100 L
b111100 W
b101100 (
b101100 8
13
1'
01
#635000
07
0@
03
0'
b1101000 E
b1101000 L
b1101000 W
b111100 U
b100 6
b100 H
b10000011100000011 C
b11 R
11
#640000
17
1@
b1010011 E
b1010011 L
b1010011 W
b10111 (
b10111 8
13
1'
01
#645000
07
0@
03
0'
b1101010 E
b1101010 L
b1101010 W
b1010011 U
b101 6
b101 H
b10000011100000100 C
b100 R
11
#650000
17
1@
b1101000 E
b1101000 L
b1101000 W
b10101 (
b10101 8
13
1'
01
#655000
07
0@
03
0'
b1111101 E
b1111101 L
b1111101 W
b1101000 U
b110 6
b110 H
b10000011100000101 C
b101 R
11
#660000
17
1@
b10010000 E
b10010000 L
b10010000 W
b101000 (
b101000 8
13
1'
01
#665000
03
0'
1Z
0Y
0@
07
0;
b10111000 E
b10111000 L
b10111000 W
b10010000 U
0O
1M
b111 6
b111 H
b10000011100000110 C
b110 R
11
#670000
0Z
1Y
1;
b11000001 E
b11000001 L
b11000001 W
b110001 (
b110001 8
13
1'
01
#675000
1:
1)
03
0'
0@
07
0;
b110001 E
b110001 L
b110001 W
b0 U
1O
0M
b1 6
b1 H
b0 R
1Z
0Y
0[
b11000001 -
b11000001 <
b11000001 K
b11000001 \
b11000001 ]
1.
1J
1_
b11100000000 C
0Q
11
#680000
01
#685000
0.
0J
0_
11
#690000
1?
1$
0:
0)
01
#695000
12
0V
1?
b100 F
0G
0D
b0 P
1>
1A
1B
b100 ,
b100 =
1*
b0 #
b0 5
b100 "
b100 4
11
#700000
01
#705000
b0 F
0?
02
0>
0A
0B
0*
0$
b10000000000 C
b100 T
11
#710000
17
1@
b10001 E
b10001 L
b10001 W
b10001 (
b10001 8
13
1'
01
#715000
07
0@
03
0'
b100010 E
b100010 L
b100010 W
b10001 U
b10 6
b10 H
b1 R
b10000010000000001 C
1Q
11
#720000
17
1@
b111101 E
b111101 L
b111101 W
b101100 (
b101100 8
13
1'
01
#725000
07
0@
03
0'
b1101001 E
b1101001 L
b1101001 W
b111101 U
b11 6
b11 H
b10000010000000010 C
b10 R
11
#730000
17
1@
b1101100 E
b1101100 L
b1101100 W
b101111 (
b101111 8
13
1'
01
#735000
03
0'
1Z
0Y
0@
07
0;
b10011011 E
b10011011 L
b10011011 W
b1101100 U
0O
1M
b100 6
b100 H
b10000010000000011 C
b11 R
11
#740000
0Z
1Y
1;
b1101101 E
b1101101 L
b1101101 W
b1 (
b1 8
13
1'
01
#745000
1:
1)
03
0'
0@
07
0;
b1 E
b1 L
b1 W
b0 U
1O
0M
b1 6
b1 H
b0 R
1Z
0Y
0[
1.
1J
1_
b1101101 -
b1101101 <
b1101101 K
b1101101 \
b1101101 ]
b10000000000 C
0Q
11
#750000
01
#755000
0.
0J
0_
11
#760000
1>
1A
1B
1$
0:
0)
01
#765000
b1 F
1D
b1 #
b1 5
11
#770000
01
#775000
0>
0A
0B
0$
11
#780000
b1 P
1V
1>
1A
1B
17
1@
b100000 E
b100000 L
b100000 W
b100000 (
b100000 8
13
1'
1$
01
#785000
1?
b101 F
07
0@
b100 P
0>
0A
0B
03
0'
b101 #
b101 5
b1000 "
b1000 4
b1000000 E
b1000000 L
b1000000 W
b100000 U
b10 6
b10 H
b1 R
b10000010000000001 C
1Q
11
#790000
01
#795000
0?
0$
b101 P
b10000010100000001 C
b101 T
11
#800000
17
1@
b1001000 E
b1001000 L
b1001000 W
b101000 (
b101000 8
13
1'
01
#805000
07
0@
03
0'
b1110000 E
b1110000 L
b1110000 W
b1001000 U
b11 6
b11 H
b10000010100000010 C
b10 R
11
#810000
17
1@
b1110010 E
b1110010 L
b1110010 W
b101010 (
b101010 8
13
1'
01
#815000
07
0@
03
0'
b10011100 E
b10011100 L
b10011100 W
b1110010 U
b100 6
b100 H
b10000010100000011 C
b11 R
11
#820000
17
1@
b10011101 E
b10011101 L
b10011101 W
b101011 (
b101011 8
13
1'
01
#825000
03
0'
1Z
0Y
0@
07
0;
b11001000 E
b11001000 L
b11001000 W
b10011101 U
0O
1M
b101 6
b101 H
b10000010100000100 C
b100 R
11
#830000
0Z
1Y
1;
b11000111 E
b11000111 L
b11000111 W
b101010 (
b101010 8
13
1'
01
#835000
1:
1)
03
0'
0@
07
0;
b101010 E
b101010 L
b101010 W
b0 U
1O
0M
b1 6
b1 H
b0 R
1Z
0Y
0[
b11000111 -
b11000111 <
b11000111 K
b11000111 \
b11000111 ]
1.
1J
1_
b10100000000 C
0Q
11
#840000
01
#845000
0.
0J
0_
11
#850000
1?
1$
0:
0)
01
#855000
0?
b1 F
b1 P
1>
1A
1B
b1 #
b1 5
b100 "
b100 4
11
#860000
01
#865000
0>
0A
0B
0$
11
#870000
1>
1A
1B
17
1@
b10110 E
b10110 L
b10110 W
b10110 (
b10110 8
13
1'
1$
01
#875000
1?
b111 F
07
0@
1G
b101 P
0>
0A
0B
03
0'
b111 #
b111 5
b1000 "
b1000 4
b101100 E
b101100 L
b101100 W
b10110 U
b10 6
b10 H
b1 R
b10000010100000001 C
1Q
11
#880000
01
#885000
0?
0$
b111 P
b10000011100000001 C
b111 T
11
#890000
17
1@
b100001 E
b100001 L
b100001 W
b1011 (
b1011 8
13
1'
01
#895000
07
0@
03
0'
b101100 E
b101100 L
b101100 W
b100001 U
b11 6
b11 H
b10000011100000010 C
b10 R
11
#900000
17
1@
b100101 E
b100101 L
b100101 W
b100 (
b100 8
13
1'
01
#905000
07
0@
03
0'
b101001 E
b101001 L
b101001 W
b100101 U
b100 6
b100 H
b10000011100000011 C
b11 R
11
#910000
17
1@
b110011 E
b110011 L
b110011 W
b1110 (
b1110 8
13
1'
01
#915000
07
0@
03
0'
b1000001 E
b1000001 L
b1000001 W
b110011 U
b101 6
b101 H
b10000011100000100 C
b100 R
11
#920000
17
1@
b1011001 E
b1011001 L
b1011001 W
b100110 (
b100110 8
13
1'
01
#925000
07
0@
03
0'
b1111111 E
b1111111 L
b1111111 W
b1011001 U
b110 6
b110 H
b10000011100000101 C
b101 R
11
#930000
17
1@
b1110110 E
b1110110 L
b1110110 W
b11101 (
b11101 8
13
1'
01
#935000
03
0'
1Z
0Y
0@
07
0;
b10010011 E
b10010011 L
b10010011 W
b1110110 U
0O
1M
b111 6
b111 H
b10000011100000110 C
b110 R
11
#940000
0Z
1Y
1;
b10000100 E
b10000100 L
b10000100 W
b1110 (
b1110 8
13
1'
01
#945000
1:
1)
03
0'
0@
07
0;
b1110 E
b1110 L
b1110 W
b0 U
1O
0M
b1 6
b1 H
b0 R
1Z
0Y
0[
1.
1J
1_
b10000100 -
b10000100 <
b10000100 K
b10000100 \
b10000100 ]
b11100000000 C
0Q
11
#950000
01
#955000
0.
0J
0_
11
#960000
1?
1$
0:
0)
01
#965000
12
0V
1?
b111 F
0G
0D
b0 P
1>
1A
1B
b111 ,
b111 =
1*
b0 #
b0 5
b100 "
b100 4
11
#970000
01
#975000
b0 F
0?
02
0>
0A
0B
0*
0$
11
#980000
17
1@
b101011 E
b101011 L
b101011 W
b101011 (
b101011 8
13
1'
01
#985000
07
0@
03
0'
b1010110 E
b1010110 L
b1010110 W
b101011 U
b10 6
b10 H
b1 R
b10000011100000001 C
1Q
11
#990000
17
1@
13
1'
01
#995000
07
0@
03
0'
b10000001 E
b10000001 L
b10000001 W
b1010110 U
b11 6
b11 H
b10000011100000010 C
b10 R
11
#1000000
17
1@
b1100110 E
b1100110 L
b1100110 W
b10000 (
b10000 8
13
1'
01
#1005000
07
0@
03
0'
b1110110 E
b1110110 L
b1110110 W
b1100110 U
b100 6
b100 H
b10000011100000011 C
b11 R
11
#1010000
17
1@
b10000001 E
b10000001 L
b10000001 W
b11011 (
b11011 8
13
1'
01
#1015000
07
0@
03
0'
b10011100 E
b10011100 L
b10011100 W
b10000001 U
b101 6
b101 H
b10000011100000100 C
b100 R
11
#1020000
17
1@
b10001100 E
b10001100 L
b10001100 W
b1011 (
b1011 8
13
1'
01
#1025000
07
0@
03
0'
b10010111 E
b10010111 L
b10010111 W
b10001100 U
b110 6
b110 H
b10000011100000101 C
b101 R
11
#1030000
17
1@
b10100010 E
b10100010 L
b10100010 W
b10110 (
b10110 8
13
1'
01
#1035000
03
0'
1Z
0Y
0@
07
0;
b10111000 E
b10111000 L
b10111000 W
b10100010 U
0O
1M
b111 6
b111 H
b10000011100000110 C
b110 R
11
#1040000
0Z
1Y
1;
b10101100 E
b10101100 L
b10101100 W
b1010 (
b1010 8
13
1'
01
#1045000
1:
1)
03
0'
0@
07
0;
b1010 E
b1010 L
b1010 W
b0 U
1O
0M
b1 6
b1 H
b0 R
1Z
0Y
0[
1.
1J
1_
b10101100 -
b10101100 <
b10101100 K
b10101100 \
b10101100 ]
b11100000000 C
0Q
11
#1050000
01
#1055000
0.
0J
0_
11
#1060000
1>
1A
1B
1$
0:
0)
01
#1065000
b110 F
1?
12
b110 ,
b110 =
1*
11
#1070000
01
#1075000
b0 F
0?
02
0>
0A
0B
0*
0$
b11000000000 C
b110 T
11
#1080000
17
1@
b1001 E
b1001 L
b1001 W
b1001 (
b1001 8
13
1'
01
#1085000
07
0@
03
0'
b10010 E
b10010 L
b10010 W
b1001 U
b10 6
b10 H
b1 R
b10000011000000001 C
1Q
11
#1090000
17
1@
b101011 E
b101011 L
b101011 W
b100010 (
b100010 8
13
1'
01
#1095000
07
0@
03
0'
b1001101 E
b1001101 L
b1001101 W
b101011 U
b11 6
b11 H
b10000011000000010 C
b10 R
11
#1100000
17
1@
b101110 E
b101110 L
b101110 W
b11 (
b11 8
13
1'
01
#1105000
07
0@
03
0'
b110001 E
b110001 L
b110001 W
b101110 U
b100 6
b100 H
b10000011000000011 C
b11 R
11
#1110000
17
1@
b1001111 E
b1001111 L
b1001111 W
b100001 (
b100001 8
13
1'
01
#1115000
07
0@
03
0'
b1110000 E
b1110000 L
b1110000 W
b1001111 U
b101 6
b101 H
b10000011000000100 C
b100 R
11
#1120000
17
1@
b1011111 E
b1011111 L
b1011111 W
b10000 (
b10000 8
13
1'
01
#1125000
03
0'
1Z
0Y
0@
07
0;
b1101111 E
b1101111 L
b1101111 W
b1011111 U
0O
1M
b110 6
b110 H
b10000011000000101 C
b101 R
11
#1130000
0Z
1Y
1;
b1100111 E
b1100111 L
b1100111 W
b1000 (
b1000 8
13
1'
01
#1135000
1:
1)
03
0'
0@
07
0;
b1000 E
b1000 L
b1000 W
b0 U
1O
0M
b1 6
b1 H
b0 R
1Z
0Y
0[
b1100111 -
b1100111 <
b1100111 K
b1100111 \
b1100111 ]
1.
1J
1_
b11000000000 C
0Q
11
#1140000
01
#1145000
0.
0J
0_
11
#1150000
1>
1A
1B
1$
0:
0)
01
#1155000
b1 F
1D
b1 #
b1 5
11
#1160000
01
#1165000
0>
0A
0B
0$
11
#1170000
b1 P
1V
1>
1A
1B
17
1@
b111 E
b111 L
b111 W
b111 (
b111 8
13
1'
1$
01
#1175000
1?
b100 F
07
0@
0D
b110 P
0>
0A
0B
03
0'
b100 #
b100 5
b1000 "
b1000 4
b1110 E
b1110 L
b1110 W
b111 U
b10 6
b10 H
b1 R
b10000011000000001 C
1Q
11
#1180000
01
#1185000
0?
0$
b100 P
b10000010000000001 C
b100 T
11
#1190000
17
1@
b10101 E
b10101 L
b10101 W
b1110 (
b1110 8
13
1'
01
#1195000
07
0@
03
0'
b100011 E
b100011 L
b100011 W
b10101 U
b11 6
b11 H
b10000010000000010 C
b10 R
11
#1200000
17
1@
b111011 E
b111011 L
b111011 W
b100110 (
b100110 8
13
1'
01
#1205000
03
0'
1Z
0Y
0@
07
0;
b1100001 E
b1100001 L
b1100001 W
b111011 U
0O
1M
b100 6
b100 H
b10000010000000011 C
b11 R
11
#1210000
0Z
1Y
1;
b1000111 E
b1000111 L
b1000111 W
b1100 (
b1100 8
13
1'
01
#1215000
1:
1)
03
0'
0@
07
0;
b1100 E
b1100 L
b1100 W
b0 U
1O
0M
b1 6
b1 H
b0 R
1Z
0Y
0[
b1000111 -
b1000111 <
b1000111 K
b1000111 \
b1000111 ]
1.
1J
1_
b10000000000 C
0Q
11
#1220000
01
#1225000
0.
0J
0_
11
#1230000
1?
1$
0:
0)
01
#1235000
0?
b1 F
1D
b1 P
1>
1A
1B
b1 #
b1 5
b100 "
b100 4
11
#1240000
01
#1245000
0>
0A
0B
0$
11
#1250000
1>
1A
1B
17
1@
b10110 E
b10110 L
b10110 W
b10110 (
b10110 8
13
1'
1$
01
#1255000
1?
b110 F
07
0@
1G
0D
b100 P
0>
0A
0B
03
0'
b110 #
b110 5
b1000 "
b1000 4
b101100 E
b101100 L
b101100 W
b10110 U
b10 6
b10 H
b1 R
b10000010000000001 C
1Q
11
#1260000
01
#1265000
0?
0$
b110 P
b10000011000000001 C
b110 T
11
#1270000
17
1@
b111110 E
b111110 L
b111110 W
b101000 (
b101000 8
13
1'
01
#1275000
07
0@
03
0'
b1100110 E
b1100110 L
b1100110 W
b111110 U
b11 6
b11 H
b10000011000000010 C
b10 R
11
#1280000
17
1@
b1010000 E
b1010000 L
b1010000 W
b10010 (
b10010 8
13
1'
01
#1285000
07
0@
03
0'
b1100010 E
b1100010 L
b1100010 W
b1010000 U
b100 6
b100 H
b10000011000000011 C
b11 R
11
#1290000
17
1@
b1111100 E
b1111100 L
b1111100 W
b101100 (
b101100 8
13
1'
01
#1295000
07
0@
03
0'
b10101000 E
b10101000 L
b10101000 W
b1111100 U
b101 6
b101 H
b10000011000000100 C
b100 R
11
#1300000
17
1@
b10100011 E
b10100011 L
b10100011 W
b100111 (
b100111 8
13
1'
01
#1305000
03
0'
1Z
0Y
0@
07
0;
b11001010 E
b11001010 L
b11001010 W
b10100011 U
0O
1M
b110 6
b110 H
b10000011000000101 C
b101 R
11
#1310000
0Z
1Y
1;
b11010100 E
b11010100 L
b11010100 W
b110001 (
b110001 8
13
1'
01
