tests/ifc_add.vcd
$date
	Tue Feb 21 01:14:48 2023
$end
$version
	Icarus Verilog
$end
$timescale
	1ps
$end
$scope module ifc_test $end
$var wire 1 ! RST_N $end
$var wire 8 " cfg_address [7:0] $end
$var wire 32 # cfg_data_in [31:0] $end
$var wire 1 $ cfg_en $end
$var wire 1 % cfg_op $end
$var wire 1 & cfg_rdy $end
$var wire 1 ' din_en $end
$var wire 8 ( din_value [7:0] $end
$var wire 1 ) dout_en $end
$var wire 1 * len_en $end
$var wire 1 + len_rdy $end
$var wire 8 , len_value [7:0] $end
$var wire 8 - dout_value [7:0] $end
$var wire 1 . dout_rdy $end
$var wire 1 / din_rdy $end
$var wire 32 0 cfg_data_out [31:0] $end
$var reg 1 1 CLK $end
$scope module dut $end
$var wire 1 1 CLK $end
$var wire 1 2 \MUX_programmed_length$write_1__SEL_1 $end
$var wire 1 ! RST_N $end
$var wire 1 3 \busy$EN $end
$var wire 8 4 cfg_address [7:0] $end
$var wire 32 5 cfg_data_in [31:0] $end
$var wire 1 $ cfg_en $end
$var wire 1 % cfg_op $end
$var wire 1 & cfg_rdy $end
$var wire 8 6 \current_count$D_IN [7:0] $end
$var wire 1 7 \current_count$EN $end
$var wire 1 ' din_en $end
$var wire 1 / din_rdy $end
$var wire 8 8 din_value [7:0] $end
$var wire 1 ) dout_en $end
$var wire 1 9 \dout_ff$CLR $end
$var wire 1 : \dout_ff$DEQ $end
$var wire 1 ; \dout_ff$ENQ $end
$var wire 1 . dout_rdy $end
$var wire 8 < dout_value [7:0] $end
$var wire 1 * len_en $end
$var wire 1 + len_rdy $end
$var wire 8 = len_value [7:0] $end
$var wire 1 > \pause$EN $end
$var wire 1 ? \programmed_length$EN $end
$var wire 1 @ \sum$EN $end
$var wire 1 A \sw_override$EN $end
$var wire 1 B \w_sw_override$whas $end
$var wire 17 C x__h969 [16:0] $end
$var wire 1 D \sw_override$D_IN $end
$var wire 8 E \sum$D_IN [7:0] $end
$var wire 8 F \programmed_length$D_IN [7:0] $end
$var wire 1 G \pause$D_IN $end
$var wire 8 H next_count__h523 [7:0] $end
$var wire 1 I \dout_ff$FULL_N $end
$var wire 1 J \dout_ff$EMPTY_N $end
$var wire 8 K \dout_ff$D_OUT [7:0] $end
$var wire 8 L \dout_ff$D_IN [7:0] $end
$var wire 1 M current_count_PLUS_1_EQ_programmed_length___d8 $end
$var wire 32 N cfg_data_out [31:0] $end
$var wire 1 O \busy$D_IN $end
$var reg 32 P CASE_cfg_address_0_0_CONCAT_x69_4_0_CONCAT_sw__ETC__q1 [31:0] $end
$var reg 1 Q busy $end
$var reg 8 R current_count [7:0] $end
$var reg 1 S pause $end
$var reg 8 T programmed_length [7:0] $end
$var reg 8 U sum [7:0] $end
$var reg 1 V sw_override $end
$scope module dout_ff $end
$var wire 1 1 CLK $end
$var wire 1 9 CLR $end
$var wire 1 : DEQ $end
$var wire 8 W D_IN [7:0] $end
$var wire 1 J EMPTY_N $end
$var wire 1 ; ENQ $end
$var wire 1 I FULL_N $end
$var wire 1 ! RST $end
$var wire 1 X d0d1 $end
$var wire 1 Y d0di $end
$var wire 1 Z d0h $end
$var wire 1 [ d1di $end
$var wire 8 \ D_OUT [7:0] $end
$var reg 8 ] data0_reg [7:0] $end
$var reg 8 ^ data1_reg [7:0] $end
$var reg 1 _ empty_reg $end
$var reg 1 ` full_reg $end
$scope begin error_checks $end
$var reg 1 a deqerror $end
$var reg 1 b enqerror $end
$upscope $end
$upscope $end
$upscope $end
$upscope $end
$enddefinitions $end
#0
$dumpvars
xb
xa
1`
0_
b10101010 ^
b10101010 ]
b10101010 \
0[
1Z
0Y
0X
bx W
0V
b0 U
b0 T
0S
b0 R
0Q
b0 P
1O
b0 N
0M
bx L
b10101010 K
0J
1I
b1 H
zG
bz F
bx E
zD
b0 C
xB
xA
x@
x?
x>
bz =
b10101010 <
0;
z:
09
bz 8
x7
b1 6
bz 5
bz 4
z3
x2
01
b0 0
1/
0.
b10101010 -
bz ,
1+
z*
z)
bz (
z'
1&
z%
z$
bz #
bz "
0!
$end
#5000
0b
0a
11
#10000
0?
02
07
0@
0*
0:
0)
03
0'
1!
01
#15000
11
#20000
1>
1A
1B
1%
b100 "
b100 4
1$
01
#25000
x/
b0z P
zV
zS
11
#30000
b0 F
0G
0D
b0 #
b0 5
01
#35000
1/
b0 P
0V
0S
11
#40000
0>
0A
0B
0$
01
#45000
11
#50000
b100 F
1?
12
b100 ,
b100 =
1*
01
#55000
b0 F
0?
02
0*
b10000000000 C
b100 T
11
#60000
b10000000000 0
b10000000000 N
b10000000000 P
0%
b0 "
b0 4
1$
01
#65000
11
#70000
01
#75000
11
#80000
17
1@
b100 E
b100 L
b100 W
b100 (
b100 8
13
1'
01
#85000
07
0@
03
0'
b10000010000000001 0
b10000010000000001 N
b10000010000000001 P
b1000 E
b1000 L
b1000 W
b100 U
b10 6
b10 H
b1 R
b10000010000000001 C
1Q
11
#90000
17
1@
b10010 E
b10010 L
b10010 W
b1110 (
b1110 8
13
1'
01
#95000
07
0@
03
0'
b10000010000000010 0
b10000010000000010 N
b10000010000000010 P
b100000 E
b100000 L
b100000 W
b10010 U
b11 6
b11 H
b10000010000000010 C
b10 R
11
#100000
17
1@
b100110 E
b100110 L
b100110 W
b10100 (
b10100 8
13
1'
01
#105000
03
0'
1Z
0Y
b10000010000000011 0
b10000010000000011 N
0@
07
0;
b10000010000000011 P
b111010 E
b111010 L
b111010 W
b100110 U
0O
1M
b100 6
b100 H
b10000010000000011 C
b11 R
11
#110000
0Z
1Y
1;
b101000 E
b101000 L
b101000 W
b10 (
b10 8
13
1'
01
#115000
1:
1)
03
0'
0@
07
0;
b10 E
b10 L
b10 W
b0 U
1O
0M
b1 6
b1 H
b0 R
1Z
0Y
b10000000000 0
b10000000000 N
0[
b10000000000 P
b101000 -
b101000 <
b101000 K
b101000 \
b101000 ]
1.
1J
1_
b10000000000 C
0Q
11
#120000
01
#125000
0.
0J
0_
11
#130000
0:
0)
01
#135000
11
#140000
1>
1A
1B
b0 0
b0 N
b0 P
1%
b100 "
b100 4
01
#145000
11
#150000
01
#155000
11
#160000
0>
0A
0B
0$
01
#165000
11
#170000
b110 F
1?
12
b110 ,
b110 =
1*
01
#175000
b0 F
0?
02
0*
b11000000000 C
b110 T
11
#180000
b11000000000 0
b11000000000 N
b11000000000 P
0%
b0 "
b0 4
1$
01
#185000
11
#190000
01
#195000
11
#200000
17
1@
b10111 E
b10111 L
b10111 W
b10111 (
b10111 8
13
1'
01
#205000
07
0@
03
0'
b10000011000000001 0
b10000011000000001 N
b10000011000000001 P
b101110 E
b101110 L
b101110 W
b10111 U
b10 6
b10 H
b1 R
b10000011000000001 C
1Q
11
#210000
17
1@
b101000 E
b101000 L
b101000 W
b10001 (
b10001 8
13
1'
01
#215000
07
0@
03
0'
b10000011000000010 0
b10000011000000010 N
b10000011000000010 P
b111001 E
b111001 L
b111001 W
b101000 U
b11 6
b11 H
b10000011000000010 C
b10 R
11
#220000
17
1@
b111101 E
b111101 L
b111101 W
b10101 (
b10101 8
13
1'
01
#225000
07
0@
03
0'
b10000011000000011 0
b10000011000000011 N
b10000011000000011 P
b1010010 E
b1010010 L
b1010010 W
b111101 U
b100 6
b100 H
b10000011000000011 C
b11 R
11
#230000
17
1@
b111110 E
b111110 L
b111110 W
b1 (
b1 8
13
1'
01
#235000
07
0@
03
0'
b10000011000000100 0
b10000011000000100 N
b10000011000000100 P
b111111 E
b111111 L
b111111 W
b111110 U
b101 6
b101 H
b10000011000000100 C
b100 R
11
#240000
17
1@
b1001111 E
b1001111 L
b1001111 W
b10001 (
b10001 8
13
1'
01
#245000
03
0'
1Z
0Y
b10000011000000101 0
b10000011000000101 N
0@
07
0;
b10000011000000101 P
b1100000 E
b1100000 L
b1100000 W
b1001111 U
0O
1M
b110 6
b110 H
b10000011000000101 C
b101 R
11
#250000
0Z
1Y
1;
b1011100 E
b1011100 L
b1011100 W
b1101 (
b1101 8
13
1'
01
#255000
1:
1)
03
0'
0@
07
0;
b1101 E
b1101 L
b1101 W
b0 U
1O
0M
b1 6
b1 H
b0 R
1Z
0Y
b11000000000 0
b11000000000 N
0[
b11000000000 P
b1011100 -
b1011100 <
b1011100 K
b1011100 \
b1011100 ]
1.
1J
1_
b11000000000 C
0Q
11
#260000
01
#265000
0.
0J
0_
11
#270000
0:
0)
01
#275000
11
#280000
1>
1A
1B
b0 0
b0 N
b0 P
1%
b100 "
b100 4
01
#285000
11
#290000
01
#295000
11
#300000
0>
0A
0B
0$
01
#305000
11
#310000
b101 F
1?
12
b101 ,
b101 =
1*
01
#315000
b0 F
0?
02
0*
b10100000000 C
b101 T
11
#320000
b10100000000 0
b10100000000 N
b10100000000 P
0%
b0 "
b0 4
1$
01
#325000
11
#330000
01
#335000
11
#340000
17
1@
b101 E
b101 L
b101 W
b101 (
b101 8
13
1'
01
#345000
07
0@
03
0'
b10000010100000001 0
b10000010100000001 N
b10000010100000001 P
b1010 E
b1010 L
b1010 W
b101 U
b10 6
b10 H
b1 R
b10000010100000001 C
1Q
11
#350000
17
1@
b11100 E
b11100 L
b11100 W
b10111 (
b10111 8
13
1'
01
#355000
07
0@
03
0'
b10000010100000010 0
b10000010100000010 N
b10000010100000010 P
b110011 E
b110011 L
b110011 W
b11100 U
b11 6
b11 H
b10000010100000010 C
b10 R
11
#360000
17
1@
b11111 E
b11111 L
b11111 W
b11 (
b11 8
13
1'
01
#365000
07
0@
03
0'
b10000010100000011 0
b10000010100000011 N
b10000010100000011 P
b100010 E
b100010 L
b100010 W
b11111 U
b100 6
b100 H
b10000010100000011 C
b11 R
11
#370000
17
1@
b101110 E
b101110 L
b101110 W
b1111 (
b1111 8
13
1'
01
#375000
03
0'
1Z
0Y
b10000010100000100 0
b10000010100000100 N
0@
07
0;
b10000010100000100 P
b111101 E
b111101 L
b111101 W
b101110 U
0O
1M
b101 6
b101 H
b10000010100000100 C
b100 R
11
#380000
0Z
1Y
1;
b111100 E
b111100 L
b111100 W
b1110 (
b1110 8
13
1'
01
#385000
1:
1)
03
0'
0@
07
0;
b1110 E
b1110 L
b1110 W
b0 U
1O
0M
b1 6
b1 H
b0 R
1Z
0Y
b10100000000 0
b10100000000 N
0[
b10100000000 P
1.
1J
1_
b111100 -
b111100 <
b111100 K
b111100 \
b111100 ]
b10100000000 C
0Q
11
#390000
01
#395000
0.
0J
0_
11
#400000
0:
0)
01
#405000
11
#410000
1>
1A
1B
b0 0
b0 N
b0 P
1%
b100 "
b100 4
01
#415000
11
#420000
01
#425000
11
#430000
0>
0A
0B
0$
01
#435000
11
#440000
b110 F
1?
12
b110 ,
b110 =
1*
01
#445000
b0 F
0?
02
0*
b11000000000 C
b110 T
11
#450000
b11000000000 0
b11000000000 N
b11000000000 P
0%
b0 "
b0 4
1$
01
#455000
11
#460000
01
#465000
11
#470000
17
1@
b10111 E
b10111 L
b10111 W
b10111 (
b10111 8
13
1'
01
#475000
07
0@
03
0'
b10000011000000001 0
b10000011000000001 N
b10000011000000001 P
b101110 E
b101110 L
b101110 W
b10111 U
b10 6
b10 H
b1 R
b10000011000000001 C
1Q
11
#480000
17
1@
b11000 E
b11000 L
b11000 W
b1 (
b1 8
13
1'
01
#485000
07
0@
03
0'
b10000011000000010 0
b10000011000000010 N
b10000011000000010 P
b11001 E
b11001 L
b11001 W
b11000 U
b11 6
b11 H
b10000011000000010 C
b10 R
11
#490000
17
1@
b11011 E
b11011 L
b11011 W
b11 (
b11 8
13
1'
01
#495000
07
0@
03
0'
b10000011000000011 0
b10000011000000011 N
b10000011000000011 P
b11110 E
b11110 L
b11110 W
b11011 U
b100 6
b100 H
b10000011000000011 C
b11 R
11
#500000
17
1@
b101011 E
b101011 L
b101011 W
b10000 (
b10000 8
13
1'
01
#505000
07
0@
03
0'
b10000011000000100 0
b10000011000000100 N
b10000011000000100 P
b111011 E
b111011 L
b111011 W
b101011 U
b101 6
b101 H
b10000011000000100 C
b100 R
11
#510000
17
1@
b101111 E
b101111 L
b101111 W
b100 (
b100 8
13
1'
01
#515000
03
0'
1Z
0Y
b10000011000000101 0
b10000011000000101 N
0@
07
0;
b10000011000000101 P
b110011 E
b110011 L
b110011 W
b101111 U
0O
1M
b110 6
b110 H
b10000011000000101 C
b101 R
11
#520000
0Z
1Y
1;
b111010 E
b111010 L
b111010 W
b1011 (
b1011 8
13
1'
01
#525000
1:
1)
03
0'
0@
07
0;
b1011 E
b1011 L
b1011 W
b0 U
1O
0M
b1 6
b1 H
b0 R
1Z
0Y
b11000000000 0
b11000000000 N
0[
b11000000000 P
1.
1J
1_
b111010 -
b111010 <
b111010 K
b111010 \
b111010 ]
b11000000000 C
0Q
11
#530000
01
#535000
0.
0J
0_
11
#540000
0:
0)
01
#545000
11
#550000
1>
1A
1B
b0 0
b0 N
b0 P
1%
b100 "
b100 4
01
#555000
11
#560000
01
#565000
11
#570000
0>
0A
0B
0$
01
#575000
11
#580000
b100 F
1?
12
b100 ,
b100 =
1*
01
#585000
b0 F
0?
02
0*
b10000000000 C
b100 T
11
#590000
b10000000000 0
b10000000000 N
b10000000000 P
0%
b0 "
b0 4
1$
01
#595000
11
#600000
01
#605000
11
#610000
17
1@
b0 E
b0 L
b0 W
b0 (
b0 8
13
1'
01
#615000
07
0@
03
0'
b10000010000000001 0
b10000010000000001 N
b10000010000000001 P
b10 6
b10 H
b1 R
b10000010000000001 C
1Q
11
#620000
17
1@
b11001 E
b11001 L
b11001 W
b11001 (
b11001 8
13
1'
01
#625000
07
0@
03
0'
b10000010000000010 0
b10000010000000010 N
b10000010000000010 P
b110010 E
b110010 L
b110010 W
b11001 U
b11 6
b11 H
b10000010000000010 C
b10 R
11
#630000
17
1@
b100001 E
b100001 L
b100001 W
b1000 (
b1000 8
13
1'
01
#635000
03
0'
1Z
0Y
b10000010000000011 0
b10000010000000011 N
0@
07
0;
b10000010000000011 P
b101001 E
b101001 L
b101001 W
b100001 U
0O
1M
b100 6
b100 H
b10000010000000011 C
b11 R
11
#640000
0Z
1Y
1;
b101011 E
b101011 L
b101011 W
b1010 (
b1010 8
13
1'
01
#645000
1:
1)
03
0'
0@
07
0;
b1010 E
b1010 L
b1010 W
b0 U
1O
0M
b1 6
b1 H
b0 R
1Z
0Y
b10000000000 0
b10000000000 N
0[
b10000000000 P
1.
1J
1_
b101011 -
b101011 <
b101011 K
b101011 \
b101011 ]
b10000000000 C
0Q
11
#650000
01
#655000
0.
0J
0_
11
#660000
0:
0)
01
#665000
11
#670000
1>
1A
1B
b0 0
b0 N
b0 P
1%
b100 "
b100 4
01
#675000
11
#680000
01
#685000
11
#690000
0>
0A
0B
0$
01
#695000
11
#700000
b100 F
1?
12
1*
01
#705000
b0 F
0?
02
0*
11
#710000
b10000000000 0
b10000000000 N
b10000000000 P
0%
b0 "
b0 4
1$
01
#715000
11
#720000
01
#725000
11
#730000
17
1@
b10000 E
b10000 L
b10000 W
b10000 (
b10000 8
13
1'
01
#735000
07
0@
03
0'
b10000010000000001 0
b10000010000000001 N
b10000010000000001 P
b100000 E
b100000 L
b100000 W
b10000 U
b10 6
b10 H
b1 R
b10000010000000001 C
1Q
11
#740000
17
1@
b100001 E
b100001 L
b100001 W
b10001 (
b10001 8
13
1'
01
#745000
07
0@
03
0'
b10000010000000010 0
b10000010000000010 N
b10000010000000010 P
b110010 E
b110010 L
b110010 W
b100001 U
b11 6
b11 H
b10000010000000010 C
b10 R
11
#750000
17
1@
b101111 E
b101111 L
b101111 W
b1110 (
b1110 8
13
1'
01
#755000
03
0'
1Z
0Y
b10000010000000011 0
b10000010000000011 N
0@
07
0;
b10000010000000011 P
b111101 E
b111101 L
b111101 W
b101111 U
0O
1M
b100 6
b100 H
b10000010000000011 C
b11 R
11
#760000
0Z
1Y
1;
b111100 E
b111100 L
b111100 W
b1101 (
b1101 8
13
1'
01
#765000
1:
1)
03
0'
0@
07
0;
b1101 E
b1101 L
b1101 W
b0 U
1O
0M
b1 6
b1 H
b0 R
1Z
0Y
b10000000000 0
b10000000000 N
0[
b10000000000 P
1.
1J
1_
b111100 -
b111100 <
b111100 K
b111100 \
b111100 ]
b10000000000 C
0Q
11
#770000
01
#775000
0.
0J
0_
11
#780000
0:
0)
01
#785000
11
#790000
1>
1A
1B
b0 0
b0 N
b0 P
1%
b100 "
b100 4
01
#795000
11
#800000
01
#805000
11
#810000
0>
0A
0B
0$
01
#815000
11
#820000
b100 F
1?
12
1*
01
#825000
b0 F
0?
02
0*
11
#830000
b10000000000 0
b10000000000 N
b10000000000 P
0%
b0 "
b0 4
1$
01
#835000
11
#840000
01
#845000
11
#850000
17
1@
b10000 E
b10000 L
b10000 W
b10000 (
b10000 8
13
1'
01
#855000
07
0@
03
0'
b10000010000000001 0
b10000010000000001 N
b10000010000000001 P
b100000 E
b100000 L
b100000 W
b10000 U
b10 6
b10 H
b1 R
b10000010000000001 C
1Q
11
#860000
17
1@
b100010 E
b100010 L
b100010 W
b10010 (
b10010 8
13
1'
01
#865000
07
0@
03
0'
b10000010000000010 0
b10000010000000010 N
b10000010000000010 P
b110100 E
b110100 L
b110100 W
b100010 U
b11 6
b11 H
b10000010000000010 C
b10 R
11
#870000
17
1@
b110000 E
b110000 L
b110000 W
b1110 (
b1110 8
13
1'
01
#875000
03
0'
1Z
0Y
b10000010000000011 0
b10000010000000011 N
0@
07
0;
b10000010000000011 P
b111110 E
b111110 L
b111110 W
b110000 U
0O
1M
b100 6
b100 H
b10000010000000011 C
b11 R
11
#880000
0Z
1Y
1;
b111100 E
b111100 L
b111100 W
b1100 (
b1100 8
13
1'
01
#885000
1:
1)
03
0'
0@
07
0;
b1100 E
b1100 L
b1100 W
b0 U
1O
0M
b1 6
b1 H
b0 R
1Z
0Y
b10000000000 0
b10000000000 N
0[
b10000000000 P
1.
1J
1_
b10000000000 C
0Q
11
#890000
01
#895000
0.
0J
0_
11
#900000
0:
0)
01
#905000
11
#910000
1>
1A
1B
b0 0
b0 N
b0 P
1%
b100 "
b100 4
01
#915000
11
#920000
01
#925000
11
#930000
0>
0A
0B
0$
01
#935000
11
#940000
b111 F
1?
12
b111 ,
b111 =
1*
01
#945000
b0 F
0?
02
0*
b11100000000 C
b111 T
11
#950000
b11100000000 0
b11100000000 N
b11100000000 P
0%
b0 "
b0 4
1$
01
#955000
11
#960000
01
#965000
11
#970000
17
1@
b10101 E
b10101 L
b10101 W
b10101 (
b10101 8
13
1'
01
#975000
07
0@
03
0'
b10000011100000001 0
b10000011100000001 N
b10000011100000001 P
b101010 E
b101010 L
b101010 W
b10101 U
b10 6
b10 H
b1 R
b10000011100000001 C
1Q
11
#980000
17
1@
b100010 E
b100010 L
b100010 W
b1101 (
b1101 8
13
1'
01
#985000
07
0@
03
0'
b10000011100000010 0
b10000011100000010 N
b10000011100000010 P
b101111 E
b101111 L
b101111 W
b100010 U
b11 6
b11 H
b10000011100000010 C
b10 R
11
#990000
17
1@
b111000 E
b111000 L
b111000 W
b10110 (
b10110 8
13
1'
01
#995000
07
0@
03
0'
b10000011100000011 0
b10000011100000011 N
b10000011100000011 P
b1001110 E
b1001110 L
b1001110 W
b111000 U
b100 6
b100 H
b10000011100000011 C
b11 R
11
#1000000
17
1@
b111001 E
b111001 L
b111001 W
b1 (
b1 8
13
1'
01
#1005000
07
0@
03
0'
b10000011100000100 0
b10000011100000100 N
b10000011100000100 P
b111010 E
b111010 L
b111010 W
b111001 U
b101 6
b101 H
b10000011100000100 C
b100 R
11
#1010000
17
1@
b1000011 E
b1000011 L
b1000011 W
b1010 (
b1010 8
13
1'
01
#1015000
07
0@
03
0'
b10000011100000101 0
b10000011100000101 N
b10000011100000101 P
b1001101 E
b1001101 L
b1001101 W
b1000011 U
b110 6
b110 H
b10000011100000101 C
b101 R
11
#1020000
17
1@
b1010111 E
b1010111 L
b1010111 W
b10100 (
b10100 8
13
1'
01
#1025000
03
0'
1Z
0Y
b10000011100000110 0
b10000011100000110 N
0@
07
0;
b10000011100000110 P
b1101011 E
b1101011 L
b1101011 W
b1010111 U
0O
1M
b111 6
b111 H
b10000011100000110 C
b110 R
11
#1030000
0Z
1Y
1;
b1101101 E
b1101101 L
b1101101 W
b10110 (
b10110 8
13
1'
01
#1035000
1:
1)
03
0'
0@
07
0;
b10110 E
b10110 L
b10110 W
b0 U
1O
0M
b1 6
b1 H
b0 R
1Z
0Y
b11100000000 0
b11100000000 N
0[
b11100000000 P
b1101101 -
b1101101 <
b1101101 K
b1101101 \
b1101101 ]
1.
1J
1_
b11100000000 C
0Q
11
#1040000
01
#1045000
0.
0J
0_
11
#1050000
0:
0)
01
#1055000
11
#1060000
1>
1A
1B
b0 0
b0 N
b0 P
1%
b100 "
b100 4
01
#1065000
11
#1070000
01
#1075000
11
#1080000
0>
0A
0B
0$
01
#1085000
11
#1090000
b111 F
1?
12
1*
01
#1095000
b0 F
0?
02
0*
11
#1100000
b11100000000 0
b11100000000 N
b11100000000 P
0%
b0 "
b0 4
1$
01
#1105000
11
#1110000
01
#1115000
11
#1120000
17
1@
b110 E
b110 L
b110 W
b110 (
b110 8
13
1'
01
#1125000
07
0@
03
0'
b10000011100000001 0
b10000011100000001 N
b10000011100000001 P
b1100 E
b1100 L
b1100 W
b110 U
b10 6
b10 H
b1 R
b10000011100000001 C
1Q
11
#1130000
17
1@
b11000 E
b11000 L
b11000 W
b10010 (
b10010 8
13
1'
01
#1135000
07
0@
03
0'
b10000011100000010 0
b10000011100000010 N
b10000011100000010 P
b101010 E
b101010 L
b101010 W
b11000 U
b11 6
b11 H
b10000011100000010 C
b10 R
11
#1140000
17
1@
b100110 E
b100110 L
b100110 W
b1110 (
b1110 8
13
1'
01
#1145000
07
0@
03
0'
b10000011100000011 0
b10000011100000011 N
b10000011100000011 P
b110100 E
b110100 L
b110100 W
b100110 U
b100 6
b100 H
b10000011100000011 C
b11 R
11
#1150000
17
1@
13
1'
01
#1155000
07
0@
03
0'
b10000011100000100 0
b10000011100000100 N
b10000011100000100 P
b1000010 E
b1000010 L
b1000010 W
b110100 U
b101 6
b101 H
b10000011100000100 C
b100 R
11
#1160000
17
1@
13
1'
01
#1165000
07
0@
03
0'
b10000011100000101 0
b10000011100000101 N
b10000011100000101 P
b1010000 E
b1010000 L
b1010000 W
b1000010 U
b110 6
b110 H
b10000011100000101 C
b101 R
11
#1170000
17
1@
b1000101 E
b1000101 L
b1000101 W
b11 (
b11 8
13
1'
01
#1175000
03
0'
1Z
0Y
b10000011100000110 0
b10000011100000110 N
0@
07
0;
b10000011100000110 P
b1001000 E
b1001000 L
b1001000 W
b1000101 U
0O
1M
b111 6
b111 H
b10000011100000110 C
b110 R
11
#1180000
0Z
1Y
1;
b1010001 E
b1010001 L
b1010001 W
b1100 (
b1100 8
13
1'
01
#1185000
1:
1)
03
0'
0@
07
0;
b1100 E
b1100 L
b1100 W
b0 U
1O
0M
b1 6
b1 H
b0 R
1Z
0Y
b11100000000 0
b11100000000 N
0[
b11100000000 P
1.
1J
1_
b1010001 -
b1010001 <
b1010001 K
b1010001 \
b1010001 ]
b11100000000 C
0Q
11
#1190000
01
#1195000
0.
0J
0_
11
#1200000
0:
0)
01
#1205000
11
#1210000
1>
1A
1B
b0 0
b0 N
b0 P
1%
b100 "
b100 4
01
#1215000
11
#1220000
01
#1225000
11
#1230000
0>
0A
0B
0$
01
#1235000
11
#1240000
b101 F
1?
12
b101 ,
b101 =
1*
01
#1245000
b0 F
0?
02
0*
b10100000000 C
b101 T
11
#1250000
b10100000000 0
b10100000000 N
b10100000000 P
0%
b0 "
b0 4
1$
01
#1255000
11
#1260000
01
#1265000
11
#1270000
17
1@
b1010 E
b1010 L
b1010 W
b1010 (
b1010 8
13
1'
01
#1275000
07
0@
03
0'
b10000010100000001 0
b10000010100000001 N
b10000010100000001 P
b10100 E
b10100 L
b10100 W
b1010 U
b10 6
b10 H
b1 R
b10000010100000001 C
1Q
11
#1280000
17
1@
b11111 E
b11111 L
b11111 W
b10101 (
b10101 8
13
1'
01
#1285000
07
0@
03
0'
b10000010100000010 0
b10000010100000010 N
b10000010100000010 P
b110100 E
b110100 L
b110100 W
b11111 U
b11 6
b11 H
b10000010100000010 C
b10 R
11
#1290000
17
1@
b110110 E
b110110 L
b110110 W
b10111 (
b10111 8
13
1'
01
#1295000
07
0@
03
0'
b10000010100000011 0
b10000010100000011 N
b10000010100000011 P
b1001101 E
b1001101 L
b1001101 W
b110110 U
b100 6
b100 H
b10000010100000011 C
b11 R
11
#1300000
17
1@
b1001000 E
b1001000 L
b1001000 W
b10010 (
b10010 8
13
1'
01
#1305000
03
0'
1Z
0Y
b10000010100000100 0
b10000010100000100 N
0@
07
0;
b10000010100000100 P
b1011010 E
b1011010 L
b1011010 W
b1001000 U
0O
1M
b101 6
b101 H
b10000010100000100 C
b100 R
11
#1310000
0Z
1Y
1;
b1001101 E
b1001101 L
b1001101 W
b101 (
b101 8
13
1'
01
#1315000
1:
1)
03
0'
0@
07
0;
b101 E
b101 L
b101 W
b0 U
1O
0M
b1 6
b1 H
b0 R
1Z
0Y
b10100000000 0
b10100000000 N
0[
b10100000000 P
b1001101 -
b1001101 <
b1001101 K
b1001101 \
b1001101 ]
1.
1J
1_
b10100000000 C
0Q
11
#1320000
01
#1325000
0.
0J
0_
11
