tests/ifc_add.vcd
$date
	Sat Mar  4 16:17:23 2023
$end
$version
	Icarus Verilog
$end
$timescale
	1ps
$end
$scope module ifc_test $end
$var wire 1 ! RST_N $end
$var wire 8 " cfg_address [7:0] $end
$var wire 32 # cfg_data_in [31:0] $end
$var wire 1 $ cfg_en $end
$var wire 1 % cfg_op $end
$var wire 1 & cfg_rdy $end
$var wire 1 ' din_en $end
$var wire 8 ( din_value [7:0] $end
$var wire 1 ) dout_en $end
$var wire 1 * len_en $end
$var wire 1 + len_rdy $end
$var wire 8 , len_value [7:0] $end
$var wire 8 - dout_value [7:0] $end
$var wire 1 . dout_rdy $end
$var wire 1 / din_rdy $end
$var wire 32 0 cfg_data_out [31:0] $end
$var reg 1 1 CLK $end
$scope module dut $end
$var wire 1 1 CLK $end
$var wire 1 2 \MUX_programmed_length$write_1__SEL_1 $end
$var wire 1 ! RST_N $end
$var wire 1 3 \busy$EN $end
$var wire 8 4 cfg_address [7:0] $end
$var wire 32 5 cfg_data_in [31:0] $end
$var wire 1 $ cfg_en $end
$var wire 1 % cfg_op $end
$var wire 1 & cfg_rdy $end
$var wire 8 6 \current_count$D_IN [7:0] $end
$var wire 1 7 \current_count$EN $end
$var wire 1 ' din_en $end
$var wire 1 / din_rdy $end
$var wire 8 8 din_value [7:0] $end
$var wire 1 ) dout_en $end
$var wire 1 9 \dout_ff$CLR $end
$var wire 1 : \dout_ff$DEQ $end
$var wire 1 ; \dout_ff$ENQ $end
$var wire 1 . dout_rdy $end
$var wire 8 < dout_value [7:0] $end
$var wire 1 * len_en $end
$var wire 1 + len_rdy $end
$var wire 8 = len_value [7:0] $end
$var wire 1 > \pause$EN $end
$var wire 1 ? \programmed_length$EN $end
$var wire 1 @ \sum$EN $end
$var wire 1 A \sw_override$EN $end
$var wire 1 B \w_sw_override$whas $end
$var wire 17 C x__h969 [16:0] $end
$var wire 1 D \sw_override$D_IN $end
$var wire 8 E \sum$D_IN [7:0] $end
$var wire 8 F \programmed_length$D_IN [7:0] $end
$var wire 1 G \pause$D_IN $end
$var wire 8 H next_count__h523 [7:0] $end
$var wire 1 I \dout_ff$FULL_N $end
$var wire 1 J \dout_ff$EMPTY_N $end
$var wire 8 K \dout_ff$D_OUT [7:0] $end
$var wire 8 L \dout_ff$D_IN [7:0] $end
$var wire 1 M current_count_PLUS_1_EQ_programmed_length___d8 $end
$var wire 32 N cfg_data_out [31:0] $end
$var wire 1 O \busy$D_IN $end
$var reg 32 P CASE_cfg_address_0_0_CONCAT_x69_4_0_CONCAT_sw__ETC__q1 [31:0] $end
$var reg 1 Q busy $end
$var reg 8 R current_count [7:0] $end
$var reg 1 S pause $end
$var reg 8 T programmed_length [7:0] $end
$var reg 8 U sum [7:0] $end
$var reg 1 V sw_override $end
$scope module dout_ff $end
$var wire 1 1 CLK $end
$var wire 1 9 CLR $end
$var wire 1 : DEQ $end
$var wire 8 W D_IN [7:0] $end
$var wire 1 J EMPTY_N $end
$var wire 1 ; ENQ $end
$var wire 1 I FULL_N $end
$var wire 1 ! RST $end
$var wire 1 X d0d1 $end
$var wire 1 Y d0di $end
$var wire 1 Z d0h $end
$var wire 1 [ d1di $end
$var wire 8 \ D_OUT [7:0] $end
$var reg 8 ] data0_reg [7:0] $end
$var reg 8 ^ data1_reg [7:0] $end
$var reg 1 _ empty_reg $end
$var reg 1 ` full_reg $end
$scope begin error_checks $end
$var reg 1 a deqerror $end
$var reg 1 b enqerror $end
$upscope $end
$upscope $end
$upscope $end
$upscope $end
$enddefinitions $end
#0
$dumpvars
xb
xa
1`
0_
b10101010 ^
b10101010 ]
b10101010 \
0[
1Z
0Y
0X
bx W
0V
b0 U
b0 T
0S
b0 R
0Q
b0 P
1O
b0 N
0M
bx L
b10101010 K
0J
1I
b1 H
zG
bz F
bx E
zD
b0 C
xB
xA
x@
x?
x>
bz =
b10101010 <
0;
z:
09
bz 8
x7
b1 6
bz 5
bz 4
z3
x2
01
b0 0
1/
0.
b10101010 -
bz ,
1+
z*
z)
bz (
z'
1&
z%
z$
bz #
bz "
0!
$end
#5000
0b
0a
11
#10000
0>
0A
0B
b0 "
b0 4
1%
1$
0:
0)
1!
01
#15000
11
#20000
0$
01
#25000
0?
02
07
0@
1$
0*
03
0'
11
#30000
01
#35000
b1 P
1V
b1 F
0G
1D
1>
1A
1B
b1 #
b1 5
b100 "
b100 4
11
#40000
01
#45000
0>
0A
0B
0$
11
#50000
1>
1A
1B
17
1@
b1 E
b1 L
b1 W
b1 (
b1 8
13
1'
1$
01
#55000
1?
07
0@
b0 P
0>
0A
0B
03
0'
b1000 "
b1000 4
b10 E
b10 L
b10 W
b1 U
b10 6
b10 H
b1 R
b10000000000000001 C
1Q
11
#60000
b11110001 F
b11110001 #
b11110001 5
01
#65000
0?
0$
b11110001 P
b11111000100000001 C
b11110001 T
11
#70000
17
1@
13
1'
01
#75000
07
0@
03
0'
b11 E
b11 L
b11 W
b10 U
b11 6
b11 H
b11111000100000010 C
b10 R
11
#80000
17
1@
13
1'
01
#85000
07
0@
03
0'
b100 E
b100 L
b100 W
b11 U
b100 6
b100 H
b11111000100000011 C
b11 R
11
#90000
17
1@
13
1'
01
#95000
07
0@
03
0'
b101 E
b101 L
b101 W
b100 U
b101 6
b101 H
b11111000100000100 C
b100 R
11
#100000
17
1@
13
1'
01
#105000
07
0@
03
0'
b110 E
b110 L
b110 W
b101 U
b110 6
b110 H
b11111000100000101 C
b101 R
11
#110000
17
1@
13
1'
01
#115000
07
0@
03
0'
b111 E
b111 L
b111 W
b110 U
b111 6
b111 H
b11111000100000110 C
b110 R
11
#120000
17
1@
13
1'
01
#125000
07
0@
03
0'
b1000 E
b1000 L
b1000 W
b111 U
b1000 6
b1000 H
b11111000100000111 C
b111 R
11
#130000
17
1@
13
1'
01
#135000
07
0@
03
0'
b1001 E
b1001 L
b1001 W
b1000 U
b1001 6
b1001 H
b11111000100001000 C
b1000 R
11
#140000
17
1@
13
1'
01
#145000
07
0@
03
0'
b1010 E
b1010 L
b1010 W
b1001 U
b1010 6
b1010 H
b11111000100001001 C
b1001 R
11
#150000
17
1@
13
1'
01
#155000
07
0@
03
0'
b1011 E
b1011 L
b1011 W
b1010 U
b1011 6
b1011 H
b11111000100001010 C
b1010 R
11
#160000
17
1@
13
1'
01
#165000
07
0@
03
0'
b1100 E
b1100 L
b1100 W
b1011 U
b1100 6
b1100 H
b11111000100001011 C
b1011 R
11
#170000
17
1@
13
1'
01
#175000
07
0@
03
0'
b1101 E
b1101 L
b1101 W
b1100 U
b1101 6
b1101 H
b11111000100001100 C
b1100 R
11
#180000
17
1@
13
1'
01
#185000
07
0@
03
0'
b1110 E
b1110 L
b1110 W
b1101 U
b1110 6
b1110 H
b11111000100001101 C
b1101 R
11
#190000
17
1@
13
1'
01
#195000
07
0@
03
0'
b1111 E
b1111 L
b1111 W
b1110 U
b1111 6
b1111 H
b11111000100001110 C
b1110 R
11
#200000
17
1@
13
1'
01
#205000
07
0@
03
0'
b10000 E
b10000 L
b10000 W
b1111 U
b10000 6
b10000 H
b11111000100001111 C
b1111 R
11
#210000
17
1@
13
1'
01
#215000
07
0@
03
0'
b10001 E
b10001 L
b10001 W
b10000 U
b10001 6
b10001 H
b11111000100010000 C
b10000 R
11
#220000
17
1@
13
1'
01
#225000
07
0@
03
0'
b10010 E
b10010 L
b10010 W
b10001 U
b10010 6
b10010 H
b11111000100010001 C
b10001 R
11
#230000
17
1@
13
1'
01
#235000
07
0@
03
0'
b10011 E
b10011 L
b10011 W
b10010 U
b10011 6
b10011 H
b11111000100010010 C
b10010 R
11
#240000
17
1@
13
1'
01
#245000
07
0@
03
0'
b10100 E
b10100 L
b10100 W
b10011 U
b10100 6
b10100 H
b11111000100010011 C
b10011 R
11
#250000
17
1@
13
1'
01
#255000
07
0@
03
0'
b10101 E
b10101 L
b10101 W
b10100 U
b10101 6
b10101 H
b11111000100010100 C
b10100 R
11
#260000
17
1@
13
1'
01
#265000
07
0@
03
0'
b10110 E
b10110 L
b10110 W
b10101 U
b10110 6
b10110 H
b11111000100010101 C
b10101 R
11
#270000
17
1@
13
1'
01
#275000
07
0@
03
0'
b10111 E
b10111 L
b10111 W
b10110 U
b10111 6
b10111 H
b11111000100010110 C
b10110 R
11
#280000
17
1@
13
1'
01
#285000
07
0@
03
0'
b11000 E
b11000 L
b11000 W
b10111 U
b11000 6
b11000 H
b11111000100010111 C
b10111 R
11
#290000
17
1@
13
1'
01
#295000
07
0@
03
0'
b11001 E
b11001 L
b11001 W
b11000 U
b11001 6
b11001 H
b11111000100011000 C
b11000 R
11
#300000
17
1@
13
1'
01
#305000
07
0@
03
0'
b11010 E
b11010 L
b11010 W
b11001 U
b11010 6
b11010 H
b11111000100011001 C
b11001 R
11
#310000
17
1@
13
1'
01
#315000
07
0@
03
0'
b11011 E
b11011 L
b11011 W
b11010 U
b11011 6
b11011 H
b11111000100011010 C
b11010 R
11
#320000
17
1@
13
1'
01
#325000
07
0@
03
0'
b11100 E
b11100 L
b11100 W
b11011 U
b11100 6
b11100 H
b11111000100011011 C
b11011 R
11
#330000
17
1@
13
1'
01
#335000
07
0@
03
0'
b11101 E
b11101 L
b11101 W
b11100 U
b11101 6
b11101 H
b11111000100011100 C
b11100 R
11
#340000
17
1@
13
1'
01
#345000
07
0@
03
0'
b11110 E
b11110 L
b11110 W
b11101 U
b11110 6
b11110 H
b11111000100011101 C
b11101 R
11
#350000
17
1@
13
1'
01
#355000
07
0@
03
0'
b11111 E
b11111 L
b11111 W
b11110 U
b11111 6
b11111 H
b11111000100011110 C
b11110 R
11
#360000
17
1@
13
1'
01
#365000
07
0@
03
0'
b100000 E
b100000 L
b100000 W
b11111 U
b100000 6
b100000 H
b11111000100011111 C
b11111 R
11
#370000
17
1@
13
1'
01
#375000
07
0@
03
0'
b100001 E
b100001 L
b100001 W
b100000 U
b100001 6
b100001 H
b11111000100100000 C
b100000 R
11
#380000
17
1@
13
1'
01
#385000
07
0@
03
0'
b100010 E
b100010 L
b100010 W
b100001 U
b100010 6
b100010 H
b11111000100100001 C
b100001 R
11
#390000
17
1@
13
1'
01
#395000
07
0@
03
0'
b100011 E
b100011 L
b100011 W
b100010 U
b100011 6
b100011 H
b11111000100100010 C
b100010 R
11
#400000
17
1@
13
1'
01
#405000
07
0@
03
0'
b100100 E
b100100 L
b100100 W
b100011 U
b100100 6
b100100 H
b11111000100100011 C
b100011 R
11
#410000
17
1@
13
1'
01
#415000
07
0@
03
0'
b100101 E
b100101 L
b100101 W
b100100 U
b100101 6
b100101 H
b11111000100100100 C
b100100 R
11
#420000
17
1@
13
1'
01
#425000
07
0@
03
0'
b100110 E
b100110 L
b100110 W
b100101 U
b100110 6
b100110 H
b11111000100100101 C
b100101 R
11
#430000
17
1@
13
1'
01
#435000
07
0@
03
0'
b100111 E
b100111 L
b100111 W
b100110 U
b100111 6
b100111 H
b11111000100100110 C
b100110 R
11
#440000
17
1@
13
1'
01
#445000
07
0@
03
0'
b101000 E
b101000 L
b101000 W
b100111 U
b101000 6
b101000 H
b11111000100100111 C
b100111 R
11
#450000
17
1@
13
1'
01
#455000
07
0@
03
0'
b101001 E
b101001 L
b101001 W
b101000 U
b101001 6
b101001 H
b11111000100101000 C
b101000 R
11
#460000
17
1@
13
1'
01
#465000
07
0@
03
0'
b101010 E
b101010 L
b101010 W
b101001 U
b101010 6
b101010 H
b11111000100101001 C
b101001 R
11
#470000
17
1@
13
1'
01
#475000
07
0@
03
0'
b101011 E
b101011 L
b101011 W
b101010 U
b101011 6
b101011 H
b11111000100101010 C
b101010 R
11
#480000
17
1@
13
1'
01
#485000
07
0@
03
0'
b101100 E
b101100 L
b101100 W
b101011 U
b101100 6
b101100 H
b11111000100101011 C
b101011 R
11
#490000
17
1@
13
1'
01
#495000
07
0@
03
0'
b101101 E
b101101 L
b101101 W
b101100 U
b101101 6
b101101 H
b11111000100101100 C
b101100 R
11
#500000
17
1@
13
1'
01
#505000
07
0@
03
0'
b101110 E
b101110 L
b101110 W
b101101 U
b101110 6
b101110 H
b11111000100101101 C
b101101 R
11
#510000
17
1@
13
1'
01
#515000
07
0@
03
0'
b101111 E
b101111 L
b101111 W
b101110 U
b101111 6
b101111 H
b11111000100101110 C
b101110 R
11
#520000
17
1@
13
1'
01
#525000
07
0@
03
0'
b110000 E
b110000 L
b110000 W
b101111 U
b110000 6
b110000 H
b11111000100101111 C
b101111 R
11
#530000
17
1@
13
1'
01
#535000
07
0@
03
0'
b110001 E
b110001 L
b110001 W
b110000 U
b110001 6
b110001 H
b11111000100110000 C
b110000 R
11
#540000
17
1@
13
1'
01
#545000
07
0@
03
0'
b110010 E
b110010 L
b110010 W
b110001 U
b110010 6
b110010 H
b11111000100110001 C
b110001 R
11
#550000
17
1@
13
1'
01
#555000
07
0@
03
0'
b110011 E
b110011 L
b110011 W
b110010 U
b110011 6
b110011 H
b11111000100110010 C
b110010 R
11
#560000
17
1@
13
1'
01
#565000
07
0@
03
0'
b110100 E
b110100 L
b110100 W
b110011 U
b110100 6
b110100 H
b11111000100110011 C
b110011 R
11
#570000
17
1@
13
1'
01
#575000
07
0@
03
0'
b110101 E
b110101 L
b110101 W
b110100 U
b110101 6
b110101 H
b11111000100110100 C
b110100 R
11
#580000
17
1@
13
1'
01
#585000
07
0@
03
0'
b110110 E
b110110 L
b110110 W
b110101 U
b110110 6
b110110 H
b11111000100110101 C
b110101 R
11
#590000
17
1@
13
1'
01
#595000
07
0@
03
0'
b110111 E
b110111 L
b110111 W
b110110 U
b110111 6
b110111 H
b11111000100110110 C
b110110 R
11
#600000
17
1@
13
1'
01
#605000
07
0@
03
0'
b111000 E
b111000 L
b111000 W
b110111 U
b111000 6
b111000 H
b11111000100110111 C
b110111 R
11
#610000
17
1@
13
1'
01
#615000
07
0@
03
0'
b111001 E
b111001 L
b111001 W
b111000 U
b111001 6
b111001 H
b11111000100111000 C
b111000 R
11
#620000
17
1@
13
1'
01
#625000
07
0@
03
0'
b111010 E
b111010 L
b111010 W
b111001 U
b111010 6
b111010 H
b11111000100111001 C
b111001 R
11
#630000
17
1@
13
1'
01
#635000
07
0@
03
0'
b111011 E
b111011 L
b111011 W
b111010 U
b111011 6
b111011 H
b11111000100111010 C
b111010 R
11
#640000
17
1@
13
1'
01
#645000
07
0@
03
0'
b111100 E
b111100 L
b111100 W
b111011 U
b111100 6
b111100 H
b11111000100111011 C
b111011 R
11
#650000
17
1@
13
1'
01
#655000
07
0@
03
0'
b111101 E
b111101 L
b111101 W
b111100 U
b111101 6
b111101 H
b11111000100111100 C
b111100 R
11
#660000
17
1@
13
1'
01
#665000
07
0@
03
0'
b111110 E
b111110 L
b111110 W
b111101 U
b111110 6
b111110 H
b11111000100111101 C
b111101 R
11
#670000
17
1@
13
1'
01
#675000
07
0@
03
0'
b111111 E
b111111 L
b111111 W
b111110 U
b111111 6
b111111 H
b11111000100111110 C
b111110 R
11
#680000
17
1@
13
1'
01
#685000
07
0@
03
0'
b1000000 E
b1000000 L
b1000000 W
b111111 U
b1000000 6
b1000000 H
b11111000100111111 C
b111111 R
11
#690000
17
1@
13
1'
01
#695000
07
0@
03
0'
b1000001 E
b1000001 L
b1000001 W
b1000000 U
b1000001 6
b1000001 H
b11111000101000000 C
b1000000 R
11
#700000
17
1@
13
1'
01
#705000
07
0@
03
0'
b1000010 E
b1000010 L
b1000010 W
b1000001 U
b1000010 6
b1000010 H
b11111000101000001 C
b1000001 R
11
#710000
17
1@
13
1'
01
#715000
07
0@
03
0'
b1000011 E
b1000011 L
b1000011 W
b1000010 U
b1000011 6
b1000011 H
b11111000101000010 C
b1000010 R
11
#720000
17
1@
13
1'
01
#725000
07
0@
03
0'
b1000100 E
b1000100 L
b1000100 W
b1000011 U
b1000100 6
b1000100 H
b11111000101000011 C
b1000011 R
11
#730000
17
1@
13
1'
01
#735000
07
0@
03
0'
b1000101 E
b1000101 L
b1000101 W
b1000100 U
b1000101 6
b1000101 H
b11111000101000100 C
b1000100 R
11
#740000
17
1@
13
1'
01
#745000
07
0@
03
0'
b1000110 E
b1000110 L
b1000110 W
b1000101 U
b1000110 6
b1000110 H
b11111000101000101 C
b1000101 R
11
#750000
17
1@
13
1'
01
#755000
07
0@
03
0'
b1000111 E
b1000111 L
b1000111 W
b1000110 U
b1000111 6
b1000111 H
b11111000101000110 C
b1000110 R
11
#760000
17
1@
13
1'
01
#765000
07
0@
03
0'
b1001000 E
b1001000 L
b1001000 W
b1000111 U
b1001000 6
b1001000 H
b11111000101000111 C
b1000111 R
11
#770000
17
1@
13
1'
01
#775000
07
0@
03
0'
b1001001 E
b1001001 L
b1001001 W
b1001000 U
b1001001 6
b1001001 H
b11111000101001000 C
b1001000 R
11
#780000
17
1@
13
1'
01
#785000
07
0@
03
0'
b1001010 E
b1001010 L
b1001010 W
b1001001 U
b1001010 6
b1001010 H
b11111000101001001 C
b1001001 R
11
#790000
17
1@
13
1'
01
#795000
07
0@
03
0'
b1001011 E
b1001011 L
b1001011 W
b1001010 U
b1001011 6
b1001011 H
b11111000101001010 C
b1001010 R
11
#800000
17
1@
13
1'
01
#805000
07
0@
03
0'
b1001100 E
b1001100 L
b1001100 W
b1001011 U
b1001100 6
b1001100 H
b11111000101001011 C
b1001011 R
11
#810000
17
1@
13
1'
01
#815000
07
0@
03
0'
b1001101 E
b1001101 L
b1001101 W
b1001100 U
b1001101 6
b1001101 H
b11111000101001100 C
b1001100 R
11
#820000
17
1@
13
1'
01
#825000
07
0@
03
0'
b1001110 E
b1001110 L
b1001110 W
b1001101 U
b1001110 6
b1001110 H
b11111000101001101 C
b1001101 R
11
#830000
17
1@
13
1'
01
#835000
07
0@
03
0'
b1001111 E
b1001111 L
b1001111 W
b1001110 U
b1001111 6
b1001111 H
b11111000101001110 C
b1001110 R
11
#840000
17
1@
13
1'
01
#845000
07
0@
03
0'
b1010000 E
b1010000 L
b1010000 W
b1001111 U
b1010000 6
b1010000 H
b11111000101001111 C
b1001111 R
11
#850000
17
1@
13
1'
01
#855000
07
0@
03
0'
b1010001 E
b1010001 L
b1010001 W
b1010000 U
b1010001 6
b1010001 H
b11111000101010000 C
b1010000 R
11
#860000
17
1@
13
1'
01
#865000
07
0@
03
0'
b1010010 E
b1010010 L
b1010010 W
b1010001 U
b1010010 6
b1010010 H
b11111000101010001 C
b1010001 R
11
#870000
17
1@
13
1'
01
#875000
07
0@
03
0'
b1010011 E
b1010011 L
b1010011 W
b1010010 U
b1010011 6
b1010011 H
b11111000101010010 C
b1010010 R
11
#880000
17
1@
13
1'
01
#885000
07
0@
03
0'
b1010100 E
b1010100 L
b1010100 W
b1010011 U
b1010100 6
b1010100 H
b11111000101010011 C
b1010011 R
11
#890000
17
1@
13
1'
01
#895000
07
0@
03
0'
b1010101 E
b1010101 L
b1010101 W
b1010100 U
b1010101 6
b1010101 H
b11111000101010100 C
b1010100 R
11
#900000
17
1@
13
1'
01
#905000
07
0@
03
0'
b1010110 E
b1010110 L
b1010110 W
b1010101 U
b1010110 6
b1010110 H
b11111000101010101 C
b1010101 R
11
#910000
17
1@
13
1'
01
#915000
07
0@
03
0'
b1010111 E
b1010111 L
b1010111 W
b1010110 U
b1010111 6
b1010111 H
b11111000101010110 C
b1010110 R
11
#920000
17
1@
13
1'
01
#925000
07
0@
03
0'
b1011000 E
b1011000 L
b1011000 W
b1010111 U
b1011000 6
b1011000 H
b11111000101010111 C
b1010111 R
11
#930000
17
1@
13
1'
01
#935000
07
0@
03
0'
b1011001 E
b1011001 L
b1011001 W
b1011000 U
b1011001 6
b1011001 H
b11111000101011000 C
b1011000 R
11
#940000
17
1@
13
1'
01
#945000
07
0@
03
0'
b1011010 E
b1011010 L
b1011010 W
b1011001 U
b1011010 6
b1011010 H
b11111000101011001 C
b1011001 R
11
#950000
17
1@
13
1'
01
#955000
07
0@
03
0'
b1011011 E
b1011011 L
b1011011 W
b1011010 U
b1011011 6
b1011011 H
b11111000101011010 C
b1011010 R
11
#960000
17
1@
13
1'
01
#965000
07
0@
03
0'
b1011100 E
b1011100 L
b1011100 W
b1011011 U
b1011100 6
b1011100 H
b11111000101011011 C
b1011011 R
11
#970000
17
1@
13
1'
01
#975000
07
0@
03
0'
b1011101 E
b1011101 L
b1011101 W
b1011100 U
b1011101 6
b1011101 H
b11111000101011100 C
b1011100 R
11
#980000
17
1@
13
1'
01
#985000
07
0@
03
0'
b1011110 E
b1011110 L
b1011110 W
b1011101 U
b1011110 6
b1011110 H
b11111000101011101 C
b1011101 R
11
#990000
17
1@
13
1'
01
#995000
07
0@
03
0'
b1011111 E
b1011111 L
b1011111 W
b1011110 U
b1011111 6
b1011111 H
b11111000101011110 C
b1011110 R
11
#1000000
17
1@
13
1'
01
#1005000
07
0@
03
0'
b1100000 E
b1100000 L
b1100000 W
b1011111 U
b1100000 6
b1100000 H
b11111000101011111 C
b1011111 R
11
#1010000
17
1@
13
1'
01
#1015000
07
0@
03
0'
b1100001 E
b1100001 L
b1100001 W
b1100000 U
b1100001 6
b1100001 H
b11111000101100000 C
b1100000 R
11
#1020000
17
1@
13
1'
01
#1025000
07
0@
03
0'
b1100010 E
b1100010 L
b1100010 W
b1100001 U
b1100010 6
b1100010 H
b11111000101100001 C
b1100001 R
11
#1030000
17
1@
13
1'
01
#1035000
07
0@
03
0'
b1100011 E
b1100011 L
b1100011 W
b1100010 U
b1100011 6
b1100011 H
b11111000101100010 C
b1100010 R
11
#1040000
17
1@
13
1'
01
#1045000
07
0@
03
0'
b1100100 E
b1100100 L
b1100100 W
b1100011 U
b1100100 6
b1100100 H
b11111000101100011 C
b1100011 R
11
#1050000
17
1@
13
1'
01
#1055000
07
0@
03
0'
b1100101 E
b1100101 L
b1100101 W
b1100100 U
b1100101 6
b1100101 H
b11111000101100100 C
b1100100 R
11
#1060000
17
1@
13
1'
01
#1065000
07
0@
03
0'
b1100110 E
b1100110 L
b1100110 W
b1100101 U
b1100110 6
b1100110 H
b11111000101100101 C
b1100101 R
11
#1070000
17
1@
13
1'
01
#1075000
07
0@
03
0'
b1100111 E
b1100111 L
b1100111 W
b1100110 U
b1100111 6
b1100111 H
b11111000101100110 C
b1100110 R
11
#1080000
17
1@
13
1'
01
#1085000
07
0@
03
0'
b1101000 E
b1101000 L
b1101000 W
b1100111 U
b1101000 6
b1101000 H
b11111000101100111 C
b1100111 R
11
#1090000
17
1@
13
1'
01
#1095000
07
0@
03
0'
b1101001 E
b1101001 L
b1101001 W
b1101000 U
b1101001 6
b1101001 H
b11111000101101000 C
b1101000 R
11
#1100000
17
1@
13
1'
01
#1105000
07
0@
03
0'
b1101010 E
b1101010 L
b1101010 W
b1101001 U
b1101010 6
b1101010 H
b11111000101101001 C
b1101001 R
11
#1110000
17
1@
13
1'
01
#1115000
07
0@
03
0'
b1101011 E
b1101011 L
b1101011 W
b1101010 U
b1101011 6
b1101011 H
b11111000101101010 C
b1101010 R
11
#1120000
17
1@
13
1'
01
#1125000
07
0@
03
0'
b1101100 E
b1101100 L
b1101100 W
b1101011 U
b1101100 6
b1101100 H
b11111000101101011 C
b1101011 R
11
#1130000
17
1@
13
1'
01
#1135000
07
0@
03
0'
b1101101 E
b1101101 L
b1101101 W
b1101100 U
b1101101 6
b1101101 H
b11111000101101100 C
b1101100 R
11
#1140000
17
1@
13
1'
01
#1145000
07
0@
03
0'
b1101110 E
b1101110 L
b1101110 W
b1101101 U
b1101110 6
b1101110 H
b11111000101101101 C
b1101101 R
11
#1150000
17
1@
13
1'
01
#1155000
07
0@
03
0'
b1101111 E
b1101111 L
b1101111 W
b1101110 U
b1101111 6
b1101111 H
b11111000101101110 C
b1101110 R
11
#1160000
17
1@
13
1'
01
#1165000
07
0@
03
0'
b1110000 E
b1110000 L
b1110000 W
b1101111 U
b1110000 6
b1110000 H
b11111000101101111 C
b1101111 R
11
#1170000
17
1@
13
1'
01
#1175000
07
0@
03
0'
b1110001 E
b1110001 L
b1110001 W
b1110000 U
b1110001 6
b1110001 H
b11111000101110000 C
b1110000 R
11
#1180000
17
1@
13
1'
01
#1185000
07
0@
03
0'
b1110010 E
b1110010 L
b1110010 W
b1110001 U
b1110010 6
b1110010 H
b11111000101110001 C
b1110001 R
11
#1190000
17
1@
13
1'
01
#1195000
07
0@
03
0'
b1110011 E
b1110011 L
b1110011 W
b1110010 U
b1110011 6
b1110011 H
b11111000101110010 C
b1110010 R
11
#1200000
17
1@
13
1'
01
#1205000
07
0@
03
0'
b1110100 E
b1110100 L
b1110100 W
b1110011 U
b1110100 6
b1110100 H
b11111000101110011 C
b1110011 R
11
#1210000
17
1@
13
1'
01
#1215000
07
0@
03
0'
b1110101 E
b1110101 L
b1110101 W
b1110100 U
b1110101 6
b1110101 H
b11111000101110100 C
b1110100 R
11
#1220000
17
1@
13
1'
01
#1225000
07
0@
03
0'
b1110110 E
b1110110 L
b1110110 W
b1110101 U
b1110110 6
b1110110 H
b11111000101110101 C
b1110101 R
11
#1230000
17
1@
13
1'
01
#1235000
07
0@
03
0'
b1110111 E
b1110111 L
b1110111 W
b1110110 U
b1110111 6
b1110111 H
b11111000101110110 C
b1110110 R
11
#1240000
17
1@
13
1'
01
#1245000
07
0@
03
0'
b1111000 E
b1111000 L
b1111000 W
b1110111 U
b1111000 6
b1111000 H
b11111000101110111 C
b1110111 R
11
#1250000
17
1@
13
1'
01
#1255000
07
0@
03
0'
b1111001 E
b1111001 L
b1111001 W
b1111000 U
b1111001 6
b1111001 H
b11111000101111000 C
b1111000 R
11
#1260000
17
1@
13
1'
01
#1265000
07
0@
03
0'
b1111010 E
b1111010 L
b1111010 W
b1111001 U
b1111010 6
b1111010 H
b11111000101111001 C
b1111001 R
11
#1270000
17
1@
13
1'
01
#1275000
07
0@
03
0'
b1111011 E
b1111011 L
b1111011 W
b1111010 U
b1111011 6
b1111011 H
b11111000101111010 C
b1111010 R
11
#1280000
17
1@
13
1'
01
#1285000
07
0@
03
0'
b1111100 E
b1111100 L
b1111100 W
b1111011 U
b1111100 6
b1111100 H
b11111000101111011 C
b1111011 R
11
#1290000
17
1@
13
1'
01
#1295000
07
0@
03
0'
b1111101 E
b1111101 L
b1111101 W
b1111100 U
b1111101 6
b1111101 H
b11111000101111100 C
b1111100 R
11
#1300000
17
1@
13
1'
01
#1305000
07
0@
03
0'
b1111110 E
b1111110 L
b1111110 W
b1111101 U
b1111110 6
b1111110 H
b11111000101111101 C
b1111101 R
11
#1310000
17
1@
13
1'
01
#1315000
07
0@
03
0'
b1111111 E
b1111111 L
b1111111 W
b1111110 U
b1111111 6
b1111111 H
b11111000101111110 C
b1111110 R
11
#1320000
17
1@
13
1'
01
#1325000
07
0@
03
0'
b10000000 E
b10000000 L
b10000000 W
b1111111 U
b10000000 6
b10000000 H
b11111000101111111 C
b1111111 R
11
#1330000
17
1@
13
1'
01
#1335000
07
0@
03
0'
b10000001 E
b10000001 L
b10000001 W
b10000000 U
b10000001 6
b10000001 H
b11111000110000000 C
b10000000 R
11
#1340000
17
1@
13
1'
01
#1345000
07
0@
03
0'
b10000010 E
b10000010 L
b10000010 W
b10000001 U
b10000010 6
b10000010 H
b11111000110000001 C
b10000001 R
11
#1350000
17
1@
13
1'
01
#1355000
07
0@
03
0'
b10000011 E
b10000011 L
b10000011 W
b10000010 U
b10000011 6
b10000011 H
b11111000110000010 C
b10000010 R
11
#1360000
17
1@
13
1'
01
#1365000
07
0@
03
0'
b10000100 E
b10000100 L
b10000100 W
b10000011 U
b10000100 6
b10000100 H
b11111000110000011 C
b10000011 R
11
#1370000
17
1@
13
1'
01
#1375000
07
0@
03
0'
b10000101 E
b10000101 L
b10000101 W
b10000100 U
b10000101 6
b10000101 H
b11111000110000100 C
b10000100 R
11
#1380000
17
1@
13
1'
01
#1385000
07
0@
03
0'
b10000110 E
b10000110 L
b10000110 W
b10000101 U
b10000110 6
b10000110 H
b11111000110000101 C
b10000101 R
11
#1390000
17
1@
13
1'
01
#1395000
07
0@
03
0'
b10000111 E
b10000111 L
b10000111 W
b10000110 U
b10000111 6
b10000111 H
b11111000110000110 C
b10000110 R
11
#1400000
17
1@
13
1'
01
#1405000
07
0@
03
0'
b10001000 E
b10001000 L
b10001000 W
b10000111 U
b10001000 6
b10001000 H
b11111000110000111 C
b10000111 R
11
#1410000
17
1@
13
1'
01
#1415000
07
0@
03
0'
b10001001 E
b10001001 L
b10001001 W
b10001000 U
b10001001 6
b10001001 H
b11111000110001000 C
b10001000 R
11
#1420000
17
1@
13
1'
01
#1425000
07
0@
03
0'
b10001010 E
b10001010 L
b10001010 W
b10001001 U
b10001010 6
b10001010 H
b11111000110001001 C
b10001001 R
11
#1430000
17
1@
13
1'
01
#1435000
07
0@
03
0'
b10001011 E
b10001011 L
b10001011 W
b10001010 U
b10001011 6
b10001011 H
b11111000110001010 C
b10001010 R
11
#1440000
17
1@
13
1'
01
#1445000
07
0@
03
0'
b10001100 E
b10001100 L
b10001100 W
b10001011 U
b10001100 6
b10001100 H
b11111000110001011 C
b10001011 R
11
#1450000
17
1@
13
1'
01
#1455000
07
0@
03
0'
b10001101 E
b10001101 L
b10001101 W
b10001100 U
b10001101 6
b10001101 H
b11111000110001100 C
b10001100 R
11
#1460000
17
1@
13
1'
01
#1465000
07
0@
03
0'
b10001110 E
b10001110 L
b10001110 W
b10001101 U
b10001110 6
b10001110 H
b11111000110001101 C
b10001101 R
11
#1470000
17
1@
13
1'
01
#1475000
07
0@
03
0'
b10001111 E
b10001111 L
b10001111 W
b10001110 U
b10001111 6
b10001111 H
b11111000110001110 C
b10001110 R
11
#1480000
17
1@
13
1'
01
